<?xml version="1.0" encoding="utf-8"?>
<!-- Generator: Adobe Illustrator 16.0.0, SVG Export Plug-In . SVG Version: 6.00 Build 0)  -->
<!DOCTYPE svg PUBLIC "-//W3C//DTD SVG 1.1//EN" "http://www.w3.org/Graphics/SVG/1.1/DTD/svg11.dtd">
<svg version="1.1" id="Ebene_1" xmlns="http://www.w3.org/2000/svg" xmlns:xlink="http://www.w3.org/1999/xlink" x="0px" y="0px"
	 width="562.252px" height="226.885px" viewBox="0 0 562.252 226.885" enable-background="new 0 0 562.252 226.885"
	 xml:space="preserve">
<g transform="translate(-11.445 -10.56)">
	<g transform="matrix(1.0942 0 0 -1.0942 -1228.5 630.82)">
		<g transform="matrix(.41046 .0051968 -.0053151 .4198 1266.2 462.03)">
			<path fill="#E1561F" d="M-64.154,63.121c-3.533,0.001-6.399,2.864-6.399,6.4l0,55.405c0,3.536,2.664,5.709,6.199,5.708
				c3.533,0.001,6.601-2.174,6.601-5.707l0-55.405C-57.752,65.986-60.618,63.122-64.154,63.121"/>
		</g>
		<path fill="#006680" d="M1395.835,440.668c0-10.882-8.821-19.704-19.703-19.704c-10.882,0-19.703,8.821-19.703,19.704
			c0,10.882,8.821,19.704,19.703,19.704C1387.014,460.372,1395.835,451.55,1395.835,440.668"/>
		<g transform="matrix(-.62587 .77993 .77993 .62587 1197.3 443.07)">
			<path fill="#E1561F" d="M28.425,5.074l-2.009,20.957l18.788-6.996c0.978-0.364,1.651-1.267,1.721-2.307
				c0.069-1.041-0.477-2.026-1.397-2.517L28.425,5.076L28.425,5.074z"/>
		</g>
		<g transform="translate(1616.1 473.06)">
			<path fill="#E1561F" d="M-96.586,18.759h-82.839l21.87,53.216c1.289,3.136,4.344,5.183,7.734,5.183h44.875
				c4.618,0,8.362-3.744,8.362-8.361V18.759H-96.586z"/>
		</g>
		<path fill="#88AA00" d="M1515.914,493.555v-0.114h-272.396c-34.241,0-82.614-27.758-82.614-62s48.371-61.999,82.614-61.999
			h214.877c34.241,0,62,27.758,62,61.999v0.115h40.521c17.121,0,31,13.879,31,31s-13.879,30.999-31,30.999H1515.914z"/>
		<g transform="translate(1461.5 409.12)">
			<path fill="#006680" stroke="#006680" d="M-65.665,31.548c0-10.882-8.821-19.703-19.703-19.703s-19.703,8.821-19.703,19.703
				s8.821,19.704,19.703,19.704S-65.665,42.43-65.665,31.548"/>
			<path fill="#5599FF" d="M-65.665,31.548c0-10.882-8.821-19.703-19.703-19.703s-19.703,8.821-19.703,19.703
				s8.821,19.704,19.703,19.704S-65.665,42.43-65.665,31.548"/>
		</g>
		<g transform="matrix(.82771 0 0 .82771 1695.8 447.26)">
			<path fill="#2B2200" d="M-135.951,28.898c0-9.802-7.947-17.749-17.749-17.749c-9.804,0-17.75,7.947-17.75,17.749
				c0,9.804,7.947,17.75,17.75,17.75C-143.897,46.649-135.951,38.702-135.951,28.898"/>
		</g>
		<g transform="matrix(.82771 0 0 .82771 1690.7 447.26)">
			<path fill="#5599FF" d="M-134.718,28.898c0-7.045-5.712-12.757-12.757-12.757c-7.046,0-12.757,5.712-12.757,12.757
				c0,7.046,5.71,12.758,12.757,12.758C-140.429,41.656-134.718,35.945-134.718,28.898"/>
		</g>
		<path fill="#E1561F" d="M1160.879,431.436c0-34.24,48.371-61.999,82.614-61.999h214.878c25.343,0,47.131,15.208,56.745,36.995
			c-88.839,68.233-231.741-67.243-354.235,25.003H1160.879z"/>
		<path fill="#2B2200" d="M1289.741,474.691c-18.79,0-34.021-15.231-34.021-34.021c0-18.79,15.231-34.02,34.021-34.02
			c18.788,0,34.02,15.231,34.02,34.02C1323.761,459.459,1308.529,474.691,1289.741,474.691z M1289.741,460.374
			c10.882,0,19.703-8.822,19.703-19.704c0-10.883-8.821-19.703-19.703-19.703c-10.883,0-19.703,8.82-19.703,19.703
			C1270.038,451.552,1278.858,460.374,1289.741,460.374z"/>
		<g transform="translate(1353.9 409.32)">
			<path fill="#006680" stroke="#006680" d="M-44.143,31.509c0-10.882-8.822-19.704-19.704-19.704s-19.703,8.822-19.703,19.704
				s8.821,19.703,19.703,19.703S-44.143,42.391-44.143,31.509"/>
			<path fill="#5599FF" d="M-44.143,31.509c0-10.882-8.822-19.704-19.704-19.704s-19.703,8.822-19.703,19.704
				s8.821,19.703,19.703,19.703S-44.143,42.391-44.143,31.509"/>
		</g>
		<path fill="#806600" stroke="#000000" stroke-width="1.25" d="M1289.741,468.955c-15.624,0-28.288-12.664-28.288-28.287
			c0-15.624,12.664-28.288,28.288-28.288c15.622,0,28.288,12.664,28.288,28.288C1318.03,456.291,1305.364,468.955,1289.741,468.955z
			 M1289.741,460.372c10.882,0,19.703-8.822,19.703-19.704c0-10.883-8.821-19.703-19.703-19.703
			c-10.883,0-19.703,8.82-19.703,19.703C1270.038,451.55,1278.858,460.372,1289.741,460.372z"/>
		<path fill="none" stroke="#00AAB3" stroke-width="1.28" stroke-linecap="round" stroke-linejoin="round" d="M1296.776,454.384"/>
		<path fill="none" stroke="#00AAB3" stroke-width="1.28" stroke-linecap="round" stroke-linejoin="round" d="M1280.477,438.084"/>
		<path fill="#D4AA00" stroke="#000000" stroke-width="1.25" d="M1289.741,462.063c-11.796,0-21.393-9.597-21.393-21.393
			c0-11.797,9.596-21.393,21.393-21.393c11.795,0,21.392,9.597,21.392,21.393C1311.134,452.465,1301.537,462.063,1289.741,462.063z
			 M1289.741,460.374c7.821,0,14.579-4.558,17.761-11.161c0.277-0.575,0.526-1.164,0.748-1.768c0.773-2.113,1.195-4.395,1.195-6.775
			c0-2.38-0.422-4.662-1.195-6.775c-0.221-0.603-0.471-1.193-0.748-1.767c-3.182-6.604-9.939-11.161-17.761-11.161
			c-1.7,0-3.35,0.215-4.924,0.619c-0.001,0,0,0,0,0c-0.314,0.081-0.626,0.17-0.934,0.267c-0.001,0,0-0.001,0,0
			c-5.862,1.822-10.549,6.308-12.649,12.041c-0.22,0.603-0.413,1.222-0.575,1.851c-0.081,0.315-0.154,0.632-0.22,0.953
			c-0.131,0.641-0.231,1.295-0.298,1.957c-0.068,0.662-0.102,1.333-0.102,2.013c0,0.34,0.008,0.679,0.025,1.016
			c0.017,0.336,0.043,0.668,0.077,1c0.067,0.662,0.167,1.315,0.298,1.956c0.066,0.32,0.139,0.639,0.22,0.953
			c0.161,0.63,0.353,1.247,0.575,1.85c2.762,7.545,10.007,12.93,18.509,12.93H1289.741z"/>
		<g transform="translate(1332.1 440.09)">
			<path fill="#D4AA00" stroke="#000000" stroke-width="0.28" d="M-39.783,25.354c0-1.443-1.17-2.613-2.613-2.613
				c-1.442,0-2.611,1.17-2.611,2.613c0,1.443,1.169,2.612,2.611,2.612C-40.953,27.967-39.783,26.797-39.783,25.354"/>
		</g>
		<g transform="translate(1332.1 378.16)">
			<path fill="#D4AA00" stroke="#000000" stroke-width="0.28" d="M-39.783,37.74c0-1.442-1.17-2.612-2.613-2.612
				c-1.442,0-2.611,1.17-2.611,2.612c0,1.443,1.169,2.613,2.611,2.613C-40.953,40.354-39.783,39.184-39.783,37.74"/>
		</g>
		<path fill="none" stroke="#00AAB3" stroke-width="1.28" stroke-linecap="round" stroke-linejoin="round" d="M1305.086,447.169"/>
		<path fill="none" stroke="#00AAB3" stroke-width="1.28" stroke-linecap="round" stroke-linejoin="round" d="M1278.558,431.853"/>
		<g transform="translate(1316.2 437.57)">
			<path fill="#D4AA00" stroke="#000000" stroke-width="0.28" d="M-36.603,25.858c0.721-1.249,0.294-2.847-0.956-3.569
				c-1.249-0.721-2.847-0.294-3.569,0.956c-0.721,1.249-0.294,2.847,0.956,3.569C-38.922,27.535-37.325,27.108-36.603,25.858"/>
		</g>
		<g transform="translate(1347.2 383.94)">
			<path fill="#D4AA00" stroke="#000000" stroke-width="0.28" d="M-42.803,36.584c0.721-1.249,0.294-2.847-0.956-3.568
				c-1.249-0.722-2.847-0.294-3.569,0.956c-0.721,1.249-0.294,2.848,0.956,3.568C-45.122,38.262-43.525,37.834-42.803,36.584"/>
		</g>
		<g transform="translate(1303.7 427.43)">
			<path fill="#D4AA00" stroke="#000000" stroke-width="0.28" d="M-34.103,27.886c1.249-0.722,1.678-2.32,0.957-3.569
				c-0.722-1.249-2.32-1.678-3.569-0.956c-1.249,0.72-1.678,2.319-0.956,3.569C-36.95,28.18-35.352,28.607-34.103,27.886"/>
		</g>
		<g transform="translate(1357.3 396.47)">
			<path fill="#D4AA00" stroke="#000000" stroke-width="0.28" d="M-44.823,34.078c1.249-0.721,1.678-2.319,0.956-3.568
				c-0.721-1.249-2.319-1.678-3.568-0.956c-1.249,0.72-1.678,2.319-0.957,3.568C-47.67,34.372-46.073,34.8-44.823,34.078"/>
		</g>
		<g transform="translate(1297.9 412.39)">
			<path fill="#D4AA00" stroke="#000000" stroke-width="0.28" d="M-32.942,30.894c1.443,0,2.612-1.169,2.612-2.612
				c0-1.442-1.169-2.612-2.612-2.612c-1.443,0-2.613,1.17-2.613,2.612C-35.555,29.725-34.385,30.894-32.942,30.894"/>
		</g>
		<g transform="translate(1359.8 412.39)">
			<path fill="#D4AA00" stroke="#000000" stroke-width="0.28" d="M-45.323,30.894c1.443,0,2.613-1.169,2.613-2.612
				c0-1.442-1.17-2.612-2.613-2.612c-1.442,0-2.612,1.17-2.612,2.612C-47.936,29.725-46.765,30.894-45.323,30.894"/>
		</g>
		<g transform="translate(1300.4 396.47)">
			<path fill="#D4AA00" stroke="#000000" stroke-width="0.28" d="M-33.443,34.078c1.25,0.722,2.848,0.294,3.569-0.956
				c0.722-1.249,0.294-2.848-0.956-3.568c-1.249-0.722-2.848-0.294-3.569,0.956C-35.12,31.759-34.692,33.357-33.443,34.078"/>
		</g>
		<g transform="translate(1354 427.43)">
			<path fill="#D4AA00" stroke="#000000" stroke-width="0.28" d="M-44.163,27.886c1.249,0.721,2.847,0.294,3.569-0.956
				c0.721-1.25,0.294-2.849-0.956-3.569c-1.249-0.722-2.848-0.294-3.569,0.956C-45.841,25.567-45.413,27.164-44.163,27.886"/>
		</g>
		<g transform="translate(1310.5 383.94)">
			<path fill="#D4AA00" stroke="#000000" stroke-width="0.28" d="M-35.462,36.584c0.721,1.249,2.319,1.678,3.568,0.956
				c1.249-0.72,1.678-2.319,0.956-3.568c-0.721-1.249-2.319-1.678-3.568-0.956C-35.756,33.737-36.184,35.335-35.462,36.584"/>
		</g>
		<g transform="translate(1341.5 437.57)">
			<path fill="#D4AA00" stroke="#000000" stroke-width="0.28" d="M-41.663,25.858c0.721,1.249,2.319,1.677,3.568,0.956
				c1.249-0.722,1.678-2.32,0.956-3.569c-0.72-1.249-2.319-1.677-3.568-0.956C-41.956,23.011-42.385,24.609-41.663,25.858"/>
		</g>
		<g transform="matrix(.82771 0 0 .82771 1648.6 447.26)">
			<path fill="#5599FF" d="M-124.545,28.898c0-7.045-5.712-12.757-12.757-12.757c-7.045,0-12.757,5.712-12.757,12.757
				c0,7.046,5.712,12.758,12.757,12.758C-130.256,41.656-124.545,35.945-124.545,28.898"/>
		</g>
		<path fill="#2B2200" d="M1534.922,485.877c-8.115,0-14.693-6.579-14.693-14.692s6.578-14.692,14.693-14.692
			c8.114,0,14.692,6.579,14.692,14.692S1543.036,485.877,1534.922,485.877z M1534.922,481.745c5.832,0,10.559-4.728,10.559-10.56
			s-4.728-10.56-10.559-10.56c-5.832,0-10.559,4.728-10.559,10.56S1529.089,481.745,1534.922,481.745z"/>
		<path fill="#2B2200" d="M1376.14,474.691c-18.79,0-34.021-15.231-34.021-34.021c0-18.79,15.232-34.02,34.021-34.02
			s34.019,15.231,34.019,34.02C1410.159,459.459,1394.929,474.691,1376.14,474.691z M1376.14,460.374
			c10.882,0,19.703-8.822,19.703-19.704c0-10.883-8.821-19.703-19.703-19.703s-19.704,8.82-19.704,19.703
			C1356.436,451.552,1365.258,460.374,1376.14,460.374z"/>
		<path fill="#806600" stroke="#000000" stroke-width="1.25" d="M1376.14,468.955c-15.623,0-28.289-12.664-28.289-28.287
			c0-15.624,12.666-28.288,28.289-28.288s28.288,12.664,28.288,28.288C1404.428,456.291,1391.763,468.955,1376.14,468.955z
			 M1376.14,460.372c10.882,0,19.703-8.822,19.703-19.704c0-10.883-8.821-19.703-19.703-19.703s-19.704,8.82-19.704,19.703
			C1356.436,451.55,1365.258,460.372,1376.14,460.372z"/>
		<path fill="#D4AA00" stroke="#000000" stroke-width="1.25" d="M1376.14,462.063c-11.795,0-21.394-9.597-21.394-21.393
			c0-11.797,9.598-21.393,21.394-21.393s21.392,9.597,21.392,21.393C1397.532,452.465,1387.936,462.063,1376.14,462.063z
			 M1376.14,460.374c9.862,0,18.031-7.245,19.476-16.704c0.1-0.652,0.168-1.314,0.202-1.986c0.017-0.336,0.026-0.675,0.026-1.015
			c0-0.34-0.009-0.678-0.026-1.014c-0.034-0.672-0.102-1.334-0.202-1.987c-1.445-9.458-9.614-16.704-19.476-16.704
			c-0.34,0-0.678,0.01-1.015,0.027c-2.686,0.136-5.231,0.81-7.527,1.917c-0.001,0,0,0,0,0c-2.872,1.384-5.356,3.442-7.246,5.972
			c-0.568,0.759-1.082,1.56-1.537,2.397c-1.516,2.792-2.379,5.99-2.379,9.392c0,0.34,0.009,0.679,0.027,1.015
			c0.153,3.022,0.987,5.865,2.352,8.377c0.455,0.838,0.969,1.639,1.537,2.398c3.593,4.804,9.328,7.915,15.79,7.915H1376.14z"/>
		<g transform="translate(1440.2 440.09)">
			<path fill="#D4AA00" stroke="#000000" stroke-width="0.28" d="M-61.404,25.354c0-1.443-1.169-2.613-2.613-2.613
				c-1.442,0-2.611,1.17-2.611,2.613c0,1.443,1.169,2.612,2.611,2.612C-62.573,27.967-61.404,26.798-61.404,25.354"/>
		</g>
		<g transform="translate(1440.2 378.16)">
			<path fill="#D4AA00" stroke="#000000" stroke-width="0.28" d="M-61.404,37.74c0-1.442-1.169-2.612-2.613-2.612
				c-1.442,0-2.611,1.17-2.611,2.612c0,1.443,1.169,2.613,2.611,2.613C-62.573,40.354-61.404,39.184-61.404,37.74"/>
		</g>
		<g transform="translate(1424.2 437.57)">
			<path fill="#D4AA00" stroke="#000000" stroke-width="0.28" d="M-58.204,25.858c0.722-1.249,0.294-2.847-0.956-3.569
				c-1.249-0.721-2.847-0.294-3.568,0.956c-0.722,1.249-0.294,2.847,0.956,3.569C-60.523,27.535-58.925,27.108-58.204,25.858"/>
		</g>
		<g transform="translate(1455.2 383.94)">
			<path fill="#D4AA00" stroke="#000000" stroke-width="0.28" d="M-64.404,36.584c0.722-1.249,0.294-2.847-0.956-3.568
				c-1.249-0.722-2.847-0.294-3.568,0.956c-0.722,1.249-0.294,2.848,0.956,3.568C-66.723,38.262-65.126,37.834-64.404,36.584"/>
		</g>
		<g transform="translate(1411.7 427.43)">
			<path fill="#D4AA00" stroke="#000000" stroke-width="0.28" d="M-55.704,27.886c1.249-0.722,1.677-2.32,0.956-3.569
				c-0.722-1.249-2.32-1.678-3.569-0.956c-1.249,0.72-1.677,2.319-0.956,3.569C-58.551,28.18-56.953,28.608-55.704,27.886"/>
		</g>
		<g transform="translate(1465.3 396.47)">
			<path fill="#D4AA00" stroke="#000000" stroke-width="0.28" d="M-66.424,34.078c1.249-0.721,1.677-2.319,0.956-3.568
				c-0.722-1.249-2.32-1.678-3.569-0.956c-1.249,0.72-1.678,2.319-0.956,3.568C-69.272,34.372-67.673,34.8-66.424,34.078"/>
		</g>
		<g transform="translate(1405.9 412.39)">
			<path fill="#D4AA00" stroke="#000000" stroke-width="0.28" d="M-54.544,30.894c1.443,0,2.613-1.169,2.613-2.612
				c0-1.442-1.17-2.612-2.613-2.612c-1.442,0-2.612,1.17-2.612,2.612C-57.156,29.725-55.986,30.894-54.544,30.894"/>
		</g>
		<g transform="translate(1467.9 412.39)">
			<path fill="#D4AA00" stroke="#000000" stroke-width="0.28" d="M-66.944,30.894c1.443,0,2.613-1.169,2.613-2.612
				c0-1.442-1.17-2.612-2.613-2.612c-1.442,0-2.612,1.17-2.612,2.612C-69.557,29.725-68.387,30.894-66.944,30.894"/>
		</g>
		<g transform="translate(1408.4 396.47)">
			<path fill="#D4AA00" stroke="#000000" stroke-width="0.28" d="M-55.044,34.078c1.249,0.722,2.847,0.294,3.569-0.956
				c0.721-1.249,0.294-2.848-0.957-3.568c-1.249-0.722-2.848-0.294-3.568,0.956C-56.721,31.759-56.293,33.357-55.044,34.078"/>
		</g>
		<g transform="translate(1462.1 427.43)">
			<path fill="#D4AA00" stroke="#000000" stroke-width="0.28" d="M-65.784,27.886c1.249,0.721,2.847,0.294,3.569-0.956
				c0.721-1.25,0.294-2.849-0.956-3.569c-1.249-0.722-2.848-0.294-3.569,0.956C-67.461,25.567-67.034,27.164-65.784,27.886"/>
		</g>
		<g transform="translate(1418.6 383.94)">
			<path fill="#D4AA00" stroke="#000000" stroke-width="0.28" d="M-57.084,36.584c0.721,1.249,2.319,1.678,3.568,0.956
				c1.249-0.72,1.678-2.319,0.956-3.568c-0.721-1.249-2.319-1.678-3.568-0.956C-57.377,33.737-57.806,35.335-57.084,36.584"/>
		</g>
		<g transform="translate(1449.5 437.57)">
			<path fill="#D4AA00" stroke="#000000" stroke-width="0.28" d="M-63.264,25.858c0.722,1.249,2.32,1.677,3.569,0.956
				c1.249-0.722,1.677-2.32,0.956-3.569c-0.721-1.249-2.32-1.677-3.569-0.956C-63.558,23.011-63.985,24.609-63.264,25.858"/>
		</g>
		<g transform="matrix(1.2026 0 0 1.2026 1587.5 409.12)">
			<path fill="#2B2200" d="M-75.558,26.233c0-15.623-12.665-28.288-28.288-28.288c-15.624,0-28.289,12.665-28.289,28.288
				c0,15.624,12.665,28.289,28.289,28.289C-88.223,54.522-75.558,41.857-75.558,26.233"/>
		</g>
		<g transform="translate(1580.3 409.12)">
			<path fill="#806600" stroke="#000000" d="M-89.425,31.548c0-15.623-12.666-28.288-28.289-28.288s-28.288,12.665-28.288,28.288
				c0,15.624,12.665,28.288,28.288,28.288S-89.425,47.172-89.425,31.548"/>
		</g>
		<g transform="translate(1569.6 409.12)">
			<path fill="#5599FF" d="M-87.286,31.548c0-10.882-8.821-19.703-19.703-19.703s-19.703,8.821-19.703,19.703
				s8.821,19.704,19.703,19.704S-87.286,42.43-87.286,31.548"/>
		</g>
		<g transform="translate(1544.9 435.86)">
			<path fill="#D4AA00" stroke="#000000" d="M-82.346,26.2c-11.795,0-21.392-9.597-21.392-21.393
				c0-11.795,9.597-21.392,21.392-21.392c11.796,0,21.393,9.597,21.393,21.392C-60.953,16.603-70.55,26.2-82.346,26.2
				 M-82.346,24.511c10.883,0,19.704-8.821,19.704-19.704c0-10.882-8.821-19.704-19.704-19.704
				c-10.882,0-19.703,8.821-19.703,19.704C-102.049,15.69-93.228,24.511-82.346,24.511"/>
		</g>
		<g transform="translate(1548.2 440.09)">
			<path fill="#D4AA00" stroke="#000000" stroke-width="0.28" d="M-83.006,25.354c0-1.443-1.169-2.613-2.612-2.613
				c-1.442,0-2.612,1.17-2.612,2.613c0,1.443,1.17,2.612,2.612,2.612C-84.175,27.967-83.006,26.797-83.006,25.354"/>
		</g>
		<g transform="translate(1548.2 378.16)">
			<path fill="#D4AA00" stroke="#000000" stroke-width="0.28" d="M-83.006,37.74c0-1.442-1.169-2.612-2.612-2.612
				c-1.442,0-2.612,1.17-2.612,2.612c0,1.443,1.17,2.613,2.612,2.613C-84.175,40.354-83.006,39.184-83.006,37.74"/>
		</g>
		<g transform="translate(1532.3 437.57)">
			<path fill="#D4AA00" stroke="#000000" stroke-width="0.28" d="M-79.825,25.858c0.722-1.249,0.294-2.847-0.956-3.569
				c-1.249-0.721-2.847-0.294-3.568,0.956c-0.722,1.249-0.294,2.847,0.956,3.569C-82.144,27.535-80.547,27.108-79.825,25.858"/>
		</g>
		<g transform="translate(1563.3 383.94)">
			<path fill="#D4AA00" stroke="#000000" stroke-width="0.28" d="M-86.026,36.584c0.722-1.249,0.294-2.847-0.956-3.568
				c-1.249-0.722-2.847-0.294-3.568,0.956c-0.722,1.249-0.294,2.848,0.956,3.568C-88.345,38.262-86.747,37.834-86.026,36.584"/>
		</g>
		<g transform="translate(1519.8 427.43)">
			<path fill="#D4AA00" stroke="#000000" stroke-width="0.28" d="M-77.325,27.886c1.249-0.722,1.678-2.32,0.956-3.569
				c-0.721-1.249-2.319-1.678-3.569-0.956c-1.249,0.72-1.677,2.319-0.956,3.569C-80.172,28.18-78.574,28.607-77.325,27.886"/>
		</g>
		<g transform="translate(1573.4 396.47)">
			<path fill="#D4AA00" stroke="#000000" stroke-width="0.28" d="M-88.045,34.078c1.249-0.721,1.677-2.319,0.956-3.568
				c-0.722-1.249-2.32-1.678-3.569-0.956c-1.249,0.72-1.678,2.319-0.956,3.568C-90.892,34.372-89.295,34.8-88.045,34.078"/>
		</g>
		<g transform="translate(1514 412.39)">
			<path fill="#D4AA00" stroke="#000000" stroke-width="0.28" d="M-76.165,30.894c1.443,0,2.613-1.169,2.613-2.612
				c0-1.442-1.17-2.612-2.613-2.612c-1.442,0-2.612,1.17-2.612,2.612C-78.777,29.725-77.607,30.894-76.165,30.894"/>
		</g>
		<g transform="translate(1575.9 412.39)">
			<path fill="#D4AA00" stroke="#000000" stroke-width="0.28" d="M-88.545,30.894c1.443,0,2.612-1.169,2.612-2.612
				c0-1.442-1.169-2.612-2.612-2.612s-2.613,1.17-2.613,2.612C-91.158,29.725-89.988,30.894-88.545,30.894"/>
		</g>
		<g transform="translate(1516.5 396.47)">
			<path fill="#D4AA00" stroke="#000000" stroke-width="0.28" d="M-76.665,34.078c1.249,0.722,2.847,0.294,3.569-0.956
				c0.721-1.249,0.294-2.848-0.957-3.568c-1.249-0.722-2.848-0.294-3.568,0.956C-78.343,31.759-77.914,33.357-76.665,34.078"/>
		</g>
		<g transform="translate(1570.1 427.43)">
			<path fill="#D4AA00" stroke="#000000" stroke-width="0.28" d="M-87.385,27.886c1.249,0.721,2.847,0.294,3.568-0.956
				c0.722-1.25,0.294-2.849-0.956-3.569c-1.249-0.722-2.848-0.294-3.569,0.956C-89.063,25.567-88.636,27.164-87.385,27.886"/>
		</g>
		<g transform="translate(1526.6 383.94)">
			<path fill="#D4AA00" stroke="#000000" stroke-width="0.28" d="M-78.685,36.584c0.722,1.249,2.32,1.678,3.569,0.956
				c1.249-0.72,1.677-2.319,0.956-3.568c-0.722-1.249-2.32-1.678-3.569-0.956C-78.979,33.737-79.406,35.335-78.685,36.584"/>
		</g>
		<g transform="translate(1557.6 437.57)">
			<path fill="#D4AA00" stroke="#000000" stroke-width="0.28" d="M-84.886,25.858c0.722,1.249,2.32,1.677,3.569,0.956
				c1.249-0.722,1.677-2.32,0.956-3.569c-0.721-1.249-2.32-1.677-3.569-0.956C-85.179,23.011-85.607,24.609-84.886,25.858"/>
		</g>
		<g transform="matrix(.84814 0 0 .84814 1256.3 421.83)">
			<path fill="#2B2200" d="M-29.031,34.2c0-15.623-12.665-28.289-28.288-28.289c-15.624,0-28.29,12.665-28.29,28.289
				s12.665,28.289,28.29,28.289C-41.696,62.488-29.031,49.823-29.031,34.2"/>
		</g>
		<g transform="matrix(.70525 0 0 .70525 1251.2 421.83)">
			<path fill="#806600" stroke="#000000" d="M-33.466,41.129c0-15.624-12.666-28.289-28.289-28.289
				c-15.624,0-28.289,12.665-28.289,28.289s12.665,28.289,28.289,28.289C-46.132,69.418-33.466,56.753-33.466,41.129"/>
		</g>
		<g transform="matrix(.70525 0 0 .70525 1243.7 421.83)">
			<path fill="#5599FF" d="M-31.339,41.129c0-10.882-8.822-19.704-19.704-19.704s-19.704,8.822-19.704,19.704
				s8.822,19.704,19.704,19.704S-31.339,52.011-31.339,41.129"/>
		</g>
		<g transform="matrix(.70525 0 0 .70525 1226.3 440.69)">
			<path fill="#D4AA00" stroke="#000000" d="M-26.404,35.78c-11.797,0-21.393-9.596-21.393-21.392s9.596-21.393,21.393-21.393
				c11.796,0,21.392,9.598,21.392,21.393S-14.608,35.78-26.404,35.78 M-26.404,34.092c10.882,0,19.702-8.822,19.702-19.704
				s-8.82-19.704-19.702-19.704c-10.883,0-19.704,8.822-19.704,19.704S-37.287,34.092-26.404,34.092"/>
		</g>
		<g transform="matrix(.70525 0 0 .70525 1228.6 443.67)">
			<path fill="#D4AA00" stroke="#000000" stroke-width="0.28" d="M-27.057,34.934c0-1.441-1.169-2.612-2.613-2.612
				c-1.441,0-2.612,1.171-2.612,2.612c0,1.444,1.171,2.613,2.612,2.613C-28.226,37.548-27.057,36.378-27.057,34.934"/>
		</g>
		<g transform="matrix(.70525 0 0 .70525 1228.6 400)">
			<path fill="#D4AA00" stroke="#000000" stroke-width="0.28" d="M-27.057,47.321c0-1.443-1.169-2.613-2.613-2.613
				c-1.441,0-2.612,1.171-2.612,2.613c0,1.443,1.171,2.612,2.612,2.612C-28.226,49.933-27.057,48.763-27.057,47.321"/>
		</g>
		<g transform="matrix(.70525 0 0 .70525 1217.4 441.9)">
			<path fill="#D4AA00" stroke="#000000" stroke-width="0.28" d="M-23.88,35.437c0.721-1.25,0.294-2.847-0.957-3.569
				c-1.249-0.721-2.846-0.294-3.569,0.955c-0.721,1.25-0.294,2.847,0.957,3.569C-26.2,37.115-24.601,36.686-23.88,35.437"/>
		</g>
		<g transform="matrix(.70525 0 0 .70525 1239.2 404.07)">
			<path fill="#D4AA00" stroke="#000000" stroke-width="0.28" d="M-30.063,46.166c0.723-1.25,0.294-2.847-0.955-3.569
				c-1.249-0.721-2.847-0.294-3.569,0.955c-0.721,1.25-0.294,2.849,0.955,3.569C-32.381,47.843-30.784,47.415-30.063,46.166"/>
		</g>
		<g transform="matrix(.70525 0 0 .70525 1208.5 434.75)">
			<path fill="#D4AA00" stroke="#000000" stroke-width="0.28" d="M-21.356,37.465c1.25-0.721,1.678-2.32,0.957-3.569
				c-0.721-1.25-2.32-1.678-3.569-0.957c-1.25,0.721-1.678,2.32-0.957,3.57C-24.202,37.759-22.605,38.186-21.356,37.465"/>
		</g>
		<g transform="matrix(.70525 0 0 .70525 1246.4 412.91)">
			<path fill="#D4AA00" stroke="#000000" stroke-width="0.28" d="M-32.105,43.659c1.25-0.723,1.678-2.32,0.957-3.57
				c-0.723-1.249-2.32-1.677-3.569-0.955c-1.25,0.721-1.678,2.32-0.957,3.569C-34.952,43.953-33.354,44.381-32.105,43.659"/>
		</g>
		<g transform="matrix(.70525 0 0 .70525 1204.5 424.14)">
			<path fill="#D4AA00" stroke="#000000" stroke-width="0.28" d="M-20.221,40.474c1.443,0,2.613-1.171,2.613-2.613
				c0-1.443-1.171-2.612-2.613-2.612c-1.443,0-2.613,1.169-2.613,2.612C-22.835,39.304-21.664,40.474-20.221,40.474"/>
		</g>
		<g transform="matrix(.70525 0 0 .70525 1248.1 424.14)">
			<path fill="#D4AA00" stroke="#000000" stroke-width="0.28" d="M-32.587,40.474c1.443,0,2.613-1.171,2.613-2.613
				c0-1.443-1.171-2.612-2.613-2.612c-1.443,0-2.613,1.169-2.613,2.612C-35.2,39.304-34.029,40.474-32.587,40.474"/>
		</g>
		<g transform="matrix(.70525 0 0 .70525 1206.2 412.91)">
			<path fill="#D4AA00" stroke="#000000" stroke-width="0.28" d="M-20.703,43.659c1.249,0.721,2.847,0.294,3.569-0.957
				c0.721-1.249,0.294-2.847-0.957-3.569c-1.249-0.721-2.847-0.294-3.569,0.955C-22.381,41.34-21.953,42.937-20.703,43.659"/>
		</g>
		<g transform="matrix(.70525 0 0 .70525 1244.1 434.75)">
			<path fill="#D4AA00" stroke="#000000" stroke-width="0.28" d="M-31.452,37.465c1.249,0.721,2.846,0.294,3.569-0.955
				c0.721-1.25,0.294-2.849-0.957-3.57c-1.249-0.721-2.847-0.294-3.569,0.957C-33.13,35.145-32.702,36.744-31.452,37.465"/>
		</g>
		<g transform="matrix(.70525 0 0 .70525 1213.4 404.07)">
			<path fill="#D4AA00" stroke="#000000" stroke-width="0.28" d="M-22.745,46.166c0.721,1.249,2.318,1.677,3.569,0.955
				c1.249-0.72,1.677-2.318,0.955-3.569c-0.721-1.249-2.32-1.677-3.569-0.955C-23.038,43.319-23.467,44.916-22.745,46.166"/>
		</g>
		<g transform="matrix(.70525 0 0 .70525 1235.2 441.9)">
			<path fill="#D4AA00" stroke="#000000" stroke-width="0.28" d="M-28.928,35.437c0.721,1.249,2.32,1.678,3.569,0.955
				c1.249-0.721,1.678-2.318,0.955-3.569c-0.72-1.249-2.318-1.677-3.569-0.955C-29.222,32.59-29.649,34.187-28.928,35.437"/>
		</g>
		<g transform="translate(1704.7 423.32)">
			<path fill="#E1561F" d="M-114.307,28.709v21.053l18.035-8.757c0.939-0.456,1.523-1.419,1.493-2.461
				c-0.029-1.042-0.668-1.971-1.631-2.371L-114.307,28.709z"/>
		</g>
		<g transform="matrix(1.0675 0 0 1.0675 1718.4 355.95)">
			<path fill="#E1561F" d="M-109.646,39.516c0,14.79-9.6,57.979-9.6,57.979s-9.6-43.189-9.6-57.979
				c0-14.789,4.299-26.779,9.6-26.779C-113.944,12.737-109.646,24.727-109.646,39.516"/>
		</g>
		<g transform="matrix(1.0675 0 0 -1.0675 1718.4 509.82)">
			<path fill="#E1561F" d="M-109.646-10.686c0,14.789-9.6,57.978-9.6,57.978s-9.6-43.189-9.6-57.978
				c0-14.79,4.299-26.779,9.6-26.779S-109.646-25.475-109.646-10.686"/>
		</g>
		<path fill="#5599FF" d="M1199.679,381.358c14.193-7.491,30.107-11.916,43.773-11.916h214.877c13.663,0,26.287,4.427,36.533,11.916
			h-295.179H1199.679z"/>
		
			<circle opacity="0.999" fill="#88AA00" stroke="#000000" stroke-width="0.6854" stroke-linecap="round" stroke-linejoin="round" enable-background="new    " cx="1258.318" cy="376.581" r="2.472"/>
		
			<circle opacity="0.999" fill="#88AA00" stroke="#000000" stroke-width="0.6854" stroke-linecap="round" stroke-linejoin="round" enable-background="new    " cx="1265.038" cy="376.581" r="2.472"/>
		
			<circle opacity="0.999" fill="#88AA00" stroke="#000000" stroke-width="0.6854" stroke-linecap="round" stroke-linejoin="round" enable-background="new    " cx="1271.758" cy="376.581" r="2.472"/>
		
			<circle opacity="0.999" fill="#88AA00" stroke="#000000" stroke-width="0.6854" stroke-linecap="round" stroke-linejoin="round" enable-background="new    " cx="1278.478" cy="376.581" r="2.472"/>
		
			<circle opacity="0.999" fill="#88AA00" stroke="#000000" stroke-width="0.6854" stroke-linecap="round" stroke-linejoin="round" enable-background="new    " cx="1285.197" cy="376.581" r="2.472"/>
		
			<circle opacity="0.999" fill="#88AA00" stroke="#000000" stroke-width="0.6854" stroke-linecap="round" stroke-linejoin="round" enable-background="new    " cx="1291.918" cy="376.581" r="2.472"/>
		
			<circle opacity="0.999" fill="#88AA00" stroke="#000000" stroke-width="0.6854" stroke-linecap="round" stroke-linejoin="round" enable-background="new    " cx="1298.637" cy="376.581" r="2.472"/>
		
			<circle opacity="0.999" fill="#88AA00" stroke="#000000" stroke-width="0.6854" stroke-linecap="round" stroke-linejoin="round" enable-background="new    " cx="1305.358" cy="376.581" r="2.472"/>
		
			<circle opacity="0.999" fill="#88AA00" stroke="#000000" stroke-width="0.6854" stroke-linecap="round" stroke-linejoin="round" enable-background="new    " cx="1312.077" cy="376.581" r="2.472"/>
		
			<circle opacity="0.999" fill="#88AA00" stroke="#000000" stroke-width="0.6854" stroke-linecap="round" stroke-linejoin="round" enable-background="new    " cx="1318.877" cy="376.581" r="2.472"/>
		
			<circle opacity="0.999" fill="#88AA00" stroke="#000000" stroke-width="0.6854" stroke-linecap="round" stroke-linejoin="round" enable-background="new    " cx="1325.597" cy="376.581" r="2.472"/>
		
			<circle opacity="0.999" fill="#88AA00" stroke="#000000" stroke-width="0.6854" stroke-linecap="round" stroke-linejoin="round" enable-background="new    " cx="1332.317" cy="376.581" r="2.472"/>
		
			<circle opacity="0.999" fill="#88AA00" stroke="#000000" stroke-width="0.6854" stroke-linecap="round" stroke-linejoin="round" enable-background="new    " cx="1339.037" cy="376.581" r="2.472"/>
		
			<circle opacity="0.999" fill="#88AA00" stroke="#000000" stroke-width="0.6854" stroke-linecap="round" stroke-linejoin="round" enable-background="new    " cx="1345.757" cy="376.581" r="2.472"/>
		
			<circle opacity="0.999" fill="#88AA00" stroke="#000000" stroke-width="0.6854" stroke-linecap="round" stroke-linejoin="round" enable-background="new    " cx="1352.477" cy="376.581" r="2.472"/>
		
			<circle opacity="0.999" fill="#88AA00" stroke="#000000" stroke-width="0.6854" stroke-linecap="round" stroke-linejoin="round" enable-background="new    " cx="1359.196" cy="376.581" r="2.472"/>
		
			<circle opacity="0.999" fill="#88AA00" stroke="#000000" stroke-width="0.6854" stroke-linecap="round" stroke-linejoin="round" enable-background="new    " cx="1365.917" cy="376.581" r="2.472"/>
		
			<circle opacity="0.999" fill="#88AA00" stroke="#000000" stroke-width="0.6854" stroke-linecap="round" stroke-linejoin="round" enable-background="new    " cx="1372.636" cy="376.581" r="2.472"/>
		
			<circle opacity="0.999" fill="#88AA00" stroke="#000000" stroke-width="0.6854" stroke-linecap="round" stroke-linejoin="round" enable-background="new    " cx="1379.436" cy="376.581" r="2.472"/>
		
			<circle opacity="0.999" fill="#88AA00" stroke="#000000" stroke-width="0.6854" stroke-linecap="round" stroke-linejoin="round" enable-background="new    " cx="1386.157" cy="376.581" r="2.472"/>
		
			<circle opacity="0.999" fill="#88AA00" stroke="#000000" stroke-width="0.6854" stroke-linecap="round" stroke-linejoin="round" enable-background="new    " cx="1392.876" cy="376.581" r="2.472"/>
		
			<circle opacity="0.999" fill="#88AA00" stroke="#000000" stroke-width="0.6854" stroke-linecap="round" stroke-linejoin="round" enable-background="new    " cx="1399.596" cy="376.581" r="2.472"/>
		
			<circle opacity="0.999" fill="#88AA00" stroke="#000000" stroke-width="0.6854" stroke-linecap="round" stroke-linejoin="round" enable-background="new    " cx="1406.316" cy="376.581" r="2.472"/>
		
			<circle opacity="0.999" fill="#88AA00" stroke="#000000" stroke-width="0.6854" stroke-linecap="round" stroke-linejoin="round" enable-background="new    " cx="1413.036" cy="376.581" r="2.472"/>
		
			<circle opacity="0.999" fill="#88AA00" stroke="#000000" stroke-width="0.6854" stroke-linecap="round" stroke-linejoin="round" enable-background="new    " cx="1419.755" cy="376.581" r="2.472"/>
		
			<circle opacity="0.999" fill="#88AA00" stroke="#000000" stroke-width="0.6854" stroke-linecap="round" stroke-linejoin="round" enable-background="new    " cx="1426.476" cy="376.581" r="2.472"/>
		
			<circle opacity="0.999" fill="#88AA00" stroke="#000000" stroke-width="0.6854" stroke-linecap="round" stroke-linejoin="round" enable-background="new    " cx="1433.195" cy="376.581" r="2.472"/>
		
			<circle opacity="0.999" fill="#88AA00" stroke="#000000" stroke-width="0.6854" stroke-linecap="round" stroke-linejoin="round" enable-background="new    " cx="1439.995" cy="376.581" r="2.472"/>
		
			<circle opacity="0.999" fill="#88AA00" stroke="#000000" stroke-width="0.6854" stroke-linecap="round" stroke-linejoin="round" enable-background="new    " cx="1446.716" cy="376.581" r="2.472"/>
		
			<circle opacity="0.999" fill="#88AA00" stroke="#000000" stroke-width="0.6854" stroke-linecap="round" stroke-linejoin="round" enable-background="new    " cx="1453.435" cy="376.581" r="2.472"/>
		
			<circle opacity="0.999" fill="#88AA00" stroke="#000000" stroke-width="0.6854" stroke-linecap="round" stroke-linejoin="round" enable-background="new    " cx="1460.155" cy="376.581" r="2.472"/>
		
			<circle opacity="0.999" fill="#88AA00" stroke="#000000" stroke-width="0.6854" stroke-linecap="round" stroke-linejoin="round" enable-background="new    " cx="1466.875" cy="376.581" r="2.472"/>
		
			<circle opacity="0.999" fill="#88AA00" stroke="#000000" stroke-width="0.6854" stroke-linecap="round" stroke-linejoin="round" enable-background="new    " cx="1473.595" cy="376.581" r="2.472"/>
		
			<circle opacity="0.999" fill="#88AA00" stroke="#000000" stroke-width="0.6854" stroke-linecap="round" stroke-linejoin="round" enable-background="new    " cx="1480.315" cy="376.581" r="2.472"/>
		
			<circle opacity="0.999" fill="#88AA00" stroke="#000000" stroke-width="0.6854" stroke-linecap="round" stroke-linejoin="round" enable-background="new    " cx="1231.359" cy="376.581" r="2.472"/>
		
			<circle opacity="0.999" fill="#88AA00" stroke="#000000" stroke-width="0.6854" stroke-linecap="round" stroke-linejoin="round" enable-background="new    " cx="1238.078" cy="376.581" r="2.472"/>
		
			<circle opacity="0.999" fill="#88AA00" stroke="#000000" stroke-width="0.6854" stroke-linecap="round" stroke-linejoin="round" enable-background="new    " cx="1244.798" cy="376.581" r="2.472"/>
		
			<circle opacity="0.999" fill="#88AA00" stroke="#000000" stroke-width="0.6854" stroke-linecap="round" stroke-linejoin="round" enable-background="new    " cx="1251.518" cy="376.581" r="2.472"/>
		
			<circle opacity="0.999" fill="#88AA00" stroke="#000000" stroke-width="0.6854" stroke-linecap="round" stroke-linejoin="round" enable-background="new    " cx="1217.919" cy="376.581" r="2.472"/>
		
			<circle opacity="0.999" fill="#88AA00" stroke="#000000" stroke-width="0.6854" stroke-linecap="round" stroke-linejoin="round" enable-background="new    " cx="1224.638" cy="376.581" r="2.472"/>
		
			<circle opacity="0.999" fill="#88AA00" stroke="#000000" stroke-width="0.4163" stroke-linecap="round" stroke-linejoin="round" enable-background="new    " cx="1325.837" cy="385.253" r="1.501"/>
		
			<circle opacity="0.999" fill="#88AA00" stroke="#000000" stroke-width="0.4163" stroke-linecap="round" stroke-linejoin="round" enable-background="new    " cx="1330.557" cy="385.253" r="1.501"/>
		
			<circle opacity="0.999" fill="#88AA00" stroke="#000000" stroke-width="0.4163" stroke-linecap="round" stroke-linejoin="round" enable-background="new    " cx="1335.277" cy="385.253" r="1.501"/>
		
			<circle opacity="0.999" fill="#88AA00" stroke="#000000" stroke-width="0.4163" stroke-linecap="round" stroke-linejoin="round" enable-background="new    " cx="1340.076" cy="385.253" r="1.501"/>
		
			<circle opacity="0.999" fill="#88AA00" stroke="#000000" stroke-width="0.4163" stroke-linecap="round" stroke-linejoin="round" enable-background="new    " cx="1344.797" cy="385.253" r="1.501"/>
		
			<circle opacity="0.999" fill="#88AA00" stroke="#000000" stroke-width="0.4163" stroke-linecap="round" stroke-linejoin="round" enable-background="new    " cx="1349.516" cy="385.253" r="1.501"/>
		
			<circle opacity="0.999" fill="#88AA00" stroke="#000000" stroke-width="0.4163" stroke-linecap="round" stroke-linejoin="round" enable-background="new    " cx="1354.317" cy="385.253" r="1.501"/>
		
			<circle opacity="0.999" fill="#88AA00" stroke="#000000" stroke-width="0.4163" stroke-linecap="round" stroke-linejoin="round" enable-background="new    " cx="1359.036" cy="385.253" r="1.501"/>
		
			<circle opacity="0.999" fill="#88AA00" stroke="#000000" stroke-width="0.4163" stroke-linecap="round" stroke-linejoin="round" enable-background="new    " cx="1363.836" cy="385.253" r="1.501"/>
		
			<circle opacity="0.999" fill="#88AA00" stroke="#000000" stroke-width="0.4163" stroke-linecap="round" stroke-linejoin="round" enable-background="new    " cx="1368.557" cy="385.253" r="1.501"/>
		
			<circle opacity="0.999" fill="#88AA00" stroke="#000000" stroke-width="0.4163" stroke-linecap="round" stroke-linejoin="round" enable-background="new    " cx="1373.276" cy="385.253" r="1.501"/>
		
			<circle opacity="0.999" fill="#88AA00" stroke="#000000" stroke-width="0.4163" stroke-linecap="round" stroke-linejoin="round" enable-background="new    " cx="1378.076" cy="385.253" r="1.501"/>
		
			<circle opacity="0.999" fill="#88AA00" stroke="#000000" stroke-width="0.4163" stroke-linecap="round" stroke-linejoin="round" enable-background="new    " cx="1382.796" cy="385.253" r="1.501"/>
		
			<circle opacity="0.999" fill="#88AA00" stroke="#000000" stroke-width="0.4163" stroke-linecap="round" stroke-linejoin="round" enable-background="new    " cx="1387.516" cy="385.253" r="1.501"/>
		
			<circle opacity="0.999" fill="#88AA00" stroke="#000000" stroke-width="0.4163" stroke-linecap="round" stroke-linejoin="round" enable-background="new    " cx="1392.316" cy="385.253" r="1.501"/>
		
			<circle opacity="0.999" fill="#88AA00" stroke="#000000" stroke-width="0.4163" stroke-linecap="round" stroke-linejoin="round" enable-background="new    " cx="1397.036" cy="385.253" r="1.501"/>
		
			<circle opacity="0.999" fill="#88AA00" stroke="#000000" stroke-width="0.4163" stroke-linecap="round" stroke-linejoin="round" enable-background="new    " cx="1401.755" cy="385.253" r="1.501"/>
		
			<circle opacity="0.999" fill="#88AA00" stroke="#000000" stroke-width="0.4163" stroke-linecap="round" stroke-linejoin="round" enable-background="new    " cx="1406.556" cy="385.253" r="1.501"/>
		
			<circle opacity="0.999" fill="#88AA00" stroke="#000000" stroke-width="0.4163" stroke-linecap="round" stroke-linejoin="round" enable-background="new    " cx="1411.276" cy="385.253" r="1.501"/>
		
			<circle opacity="0.999" fill="#88AA00" stroke="#000000" stroke-width="0.4163" stroke-linecap="round" stroke-linejoin="round" enable-background="new    " cx="1416.076" cy="385.253" r="1.501"/>
		
			<circle opacity="0.999" fill="#88AA00" stroke="#000000" stroke-width="0.4163" stroke-linecap="round" stroke-linejoin="round" enable-background="new    " cx="1420.796" cy="385.253" r="1.501"/>
		
			<circle opacity="0.999" fill="#88AA00" stroke="#000000" stroke-width="0.4163" stroke-linecap="round" stroke-linejoin="round" enable-background="new    " cx="1425.515" cy="385.253" r="1.501"/>
		
			<circle opacity="0.999" fill="#88AA00" stroke="#000000" stroke-width="0.4163" stroke-linecap="round" stroke-linejoin="round" enable-background="new    " cx="1430.315" cy="385.253" r="1.501"/>
		
			<circle opacity="0.999" fill="#88AA00" stroke="#000000" stroke-width="0.4163" stroke-linecap="round" stroke-linejoin="round" enable-background="new    " cx="1435.036" cy="385.253" r="1.501"/>
		
			<circle opacity="0.999" fill="#88AA00" stroke="#000000" stroke-width="0.4163" stroke-linecap="round" stroke-linejoin="round" enable-background="new    " cx="1439.755" cy="385.253" r="1.501"/>
		
			<circle opacity="0.999" fill="#88AA00" stroke="#000000" stroke-width="0.4163" stroke-linecap="round" stroke-linejoin="round" enable-background="new    " cx="1444.555" cy="385.253" r="1.501"/>
		
			<circle opacity="0.999" fill="#88AA00" stroke="#000000" stroke-width="0.4163" stroke-linecap="round" stroke-linejoin="round" enable-background="new    " cx="1449.275" cy="385.253" r="1.501"/>
		
			<circle opacity="0.999" fill="#88AA00" stroke="#000000" stroke-width="0.4163" stroke-linecap="round" stroke-linejoin="round" enable-background="new    " cx="1453.995" cy="385.253" r="1.501"/>
		
			<circle opacity="0.999" fill="#88AA00" stroke="#000000" stroke-width="0.4163" stroke-linecap="round" stroke-linejoin="round" enable-background="new    " cx="1458.795" cy="385.253" r="1.501"/>
		
			<circle opacity="0.999" fill="#88AA00" stroke="#000000" stroke-width="0.4163" stroke-linecap="round" stroke-linejoin="round" enable-background="new    " cx="1463.515" cy="385.253" r="1.501"/>
		
			<circle opacity="0.999" fill="#88AA00" stroke="#000000" stroke-width="0.4163" stroke-linecap="round" stroke-linejoin="round" enable-background="new    " cx="1468.315" cy="385.253" r="1.501"/>
		
			<circle opacity="0.999" fill="#88AA00" stroke="#000000" stroke-width="0.4163" stroke-linecap="round" stroke-linejoin="round" enable-background="new    " cx="1473.035" cy="385.253" r="1.501"/>
		
			<circle opacity="0.999" fill="#88AA00" stroke="#000000" stroke-width="0.4163" stroke-linecap="round" stroke-linejoin="round" enable-background="new    " cx="1477.755" cy="385.253" r="1.501"/>
		
			<circle opacity="0.999" fill="#88AA00" stroke="#000000" stroke-width="0.4163" stroke-linecap="round" stroke-linejoin="round" enable-background="new    " cx="1482.554" cy="385.253" r="1.501"/>
		
			<circle opacity="0.999" fill="#88AA00" stroke="#000000" stroke-width="0.4163" stroke-linecap="round" stroke-linejoin="round" enable-background="new    " cx="1487.275" cy="385.253" r="1.501"/>
		
			<circle opacity="0.999" fill="#88AA00" stroke="#000000" stroke-width="0.4163" stroke-linecap="round" stroke-linejoin="round" enable-background="new    " cx="1306.797" cy="385.253" r="1.501"/>
		
			<circle opacity="0.999" fill="#88AA00" stroke="#000000" stroke-width="0.4163" stroke-linecap="round" stroke-linejoin="round" enable-background="new    " cx="1311.597" cy="385.253" r="1.501"/>
		
			<circle opacity="0.999" fill="#88AA00" stroke="#000000" stroke-width="0.4163" stroke-linecap="round" stroke-linejoin="round" enable-background="new    " cx="1316.318" cy="385.253" r="1.501"/>
		
			<circle opacity="0.999" fill="#88AA00" stroke="#000000" stroke-width="0.4163" stroke-linecap="round" stroke-linejoin="round" enable-background="new    " cx="1321.037" cy="385.253" r="1.501"/>
		
			<circle opacity="0.999" fill="#88AA00" stroke="#000000" stroke-width="0.4163" stroke-linecap="round" stroke-linejoin="round" enable-background="new    " cx="1287.837" cy="385.253" r="1.501"/>
		
			<circle opacity="0.999" fill="#88AA00" stroke="#000000" stroke-width="0.4163" stroke-linecap="round" stroke-linejoin="round" enable-background="new    " cx="1292.558" cy="385.253" r="1.501"/>
		
			<circle opacity="0.999" fill="#88AA00" stroke="#000000" stroke-width="0.4163" stroke-linecap="round" stroke-linejoin="round" enable-background="new    " cx="1297.277" cy="385.253" r="1.501"/>
		
			<circle opacity="0.999" fill="#88AA00" stroke="#000000" stroke-width="0.4163" stroke-linecap="round" stroke-linejoin="round" enable-background="new    " cx="1302.078" cy="385.253" r="1.501"/>
		
			<circle opacity="0.999" fill="#88AA00" stroke="#000000" stroke-width="0.4163" stroke-linecap="round" stroke-linejoin="round" enable-background="new    " cx="1197.599" cy="385.253" r="1.501"/>
		
			<circle opacity="0.999" fill="#88AA00" stroke="#000000" stroke-width="0.4163" stroke-linecap="round" stroke-linejoin="round" enable-background="new    " cx="1202.319" cy="385.253" r="1.501"/>
		
			<circle opacity="0.999" fill="#88AA00" stroke="#000000" stroke-width="0.4163" stroke-linecap="round" stroke-linejoin="round" enable-background="new    " cx="1207.038" cy="385.253" r="1.501"/>
		
			<circle opacity="0.999" fill="#88AA00" stroke="#000000" stroke-width="0.4163" stroke-linecap="round" stroke-linejoin="round" enable-background="new    " cx="1211.839" cy="385.253" r="1.501"/>
		
			<circle opacity="0.999" fill="#88AA00" stroke="#000000" stroke-width="0.4163" stroke-linecap="round" stroke-linejoin="round" enable-background="new    " cx="1216.559" cy="385.253" r="1.501"/>
		
			<circle opacity="0.999" fill="#88AA00" stroke="#000000" stroke-width="0.4163" stroke-linecap="round" stroke-linejoin="round" enable-background="new    " cx="1221.358" cy="385.253" r="1.501"/>
		
			<circle opacity="0.999" fill="#88AA00" stroke="#000000" stroke-width="0.4163" stroke-linecap="round" stroke-linejoin="round" enable-background="new    " cx="1226.079" cy="385.253" r="1.501"/>
		
			<circle opacity="0.999" fill="#88AA00" stroke="#000000" stroke-width="0.4163" stroke-linecap="round" stroke-linejoin="round" enable-background="new    " cx="1230.798" cy="385.253" r="1.501"/>
		
			<circle opacity="0.999" fill="#88AA00" stroke="#000000" stroke-width="0.4163" stroke-linecap="round" stroke-linejoin="round" enable-background="new    " cx="1235.598" cy="385.253" r="1.501"/>
		
			<circle opacity="0.999" fill="#88AA00" stroke="#000000" stroke-width="0.4163" stroke-linecap="round" stroke-linejoin="round" enable-background="new    " cx="1240.318" cy="385.253" r="1.501"/>
		
			<circle opacity="0.999" fill="#88AA00" stroke="#000000" stroke-width="0.4163" stroke-linecap="round" stroke-linejoin="round" enable-background="new    " cx="1245.038" cy="385.253" r="1.501"/>
		
			<circle opacity="0.999" fill="#88AA00" stroke="#000000" stroke-width="0.4163" stroke-linecap="round" stroke-linejoin="round" enable-background="new    " cx="1249.838" cy="385.253" r="1.501"/>
		
			<circle opacity="0.999" fill="#88AA00" stroke="#000000" stroke-width="0.4163" stroke-linecap="round" stroke-linejoin="round" enable-background="new    " cx="1254.558" cy="385.253" r="1.501"/>
		
			<circle opacity="0.999" fill="#88AA00" stroke="#000000" stroke-width="0.4163" stroke-linecap="round" stroke-linejoin="round" enable-background="new    " cx="1259.358" cy="385.253" r="1.501"/>
		
			<circle opacity="0.999" fill="#88AA00" stroke="#000000" stroke-width="0.4163" stroke-linecap="round" stroke-linejoin="round" enable-background="new    " cx="1264.078" cy="385.253" r="1.501"/>
		
			<circle opacity="0.999" fill="#88AA00" stroke="#000000" stroke-width="0.4163" stroke-linecap="round" stroke-linejoin="round" enable-background="new    " cx="1268.798" cy="385.253" r="1.501"/>
		
			<circle opacity="0.999" fill="#88AA00" stroke="#000000" stroke-width="0.4163" stroke-linecap="round" stroke-linejoin="round" enable-background="new    " cx="1273.598" cy="385.253" r="1.501"/>
		
			<circle opacity="0.999" fill="#88AA00" stroke="#000000" stroke-width="0.4163" stroke-linecap="round" stroke-linejoin="round" enable-background="new    " cx="1278.318" cy="385.253" r="1.501"/>
		
			<circle opacity="0.999" fill="#88AA00" stroke="#000000" stroke-width="0.4163" stroke-linecap="round" stroke-linejoin="round" enable-background="new    " cx="1283.037" cy="385.253" r="1.501"/>
		
			<circle opacity="0.999" fill="#88AA00" stroke="#000000" stroke-width="0.4163" stroke-linecap="round" stroke-linejoin="round" enable-background="new    " cx="1491.994" cy="385.253" r="1.501"/>
		
			<circle opacity="0.999" fill="#88AA00" stroke="#000000" stroke-width="0.4163" stroke-linecap="round" stroke-linejoin="round" enable-background="new    " cx="1496.794" cy="385.253" r="1.501"/>
		<path fill="#88AA00" stroke="#000000" stroke-width="0.8" d="M1211.198,379.118c-1.168-0.001-2.177-0.818-2.419-1.962
			c1.505-0.628,3.017-1.228,4.536-1.785c0.232,0.385,0.355,0.824,0.356,1.273c0,1.366-1.107,2.473-2.472,2.474
			C1211.199,379.118,1211.199,379.118,1211.198,379.118z"/>
		<path fill="#88AA00" stroke="#000000" stroke-width="0.8" d="M1487.035,379.061c-1.365,0-2.473-1.107-2.474-2.472
			c0-0.001,0-0.001,0-0.002c0.002-0.414,0.107-0.821,0.306-1.183c1.493,0.709,2.952,1.476,4.375,2.297
			C1488.822,378.535,1487.968,379.061,1487.035,379.061L1487.035,379.061z"/>
		<path fill="#88AA00" d="M1591.353,549.451c-5.659,0-10.249-12.798-10.249-28.586c0-15.787,10.249-61.89,10.249-61.89l-0.065,0.49
			c0,0-6.963,46.712-5.848,62.46c0.881,12.432,4.483,22.798,8.737,26.418C1593.28,549.06,1592.333,549.451,1591.353,549.451
			L1591.353,549.451z"/>
		<path fill="#88AA00" d="M1591.033,369.862c5.659,0,10.249,12.798,10.249,28.586c0,15.788-10.249,61.891-10.249,61.891v0.001
			c0.022-0.236,0.063-0.491,0.063-0.491s6.963-46.712,5.848-62.461c-0.881-12.431-4.483-22.797-8.738-26.417
			c0.898-0.718,1.844-1.109,2.825-1.109L1591.033,369.862z"/>
		<g transform="matrix(1.1892 0 0 1.1892 1289.9 452.06)">
			<path fill="#B87C00" stroke="#B87C00" stroke-width="1.9421" stroke-linecap="round" stroke-linejoin="round" d="M-26.355,19.307
				c-1.577,1.642-3.417,3.548-3.417,4.139c0,1.728,1.578,3.416,1.051,5.387c-1.117,1.38-6.833-2.103-7.752-1.051
				c-1.042,1.19-5.323,4.862-6.111,4.336c-1.425-0.951-0.459-5.913-0.459-7.622l-0.132-0.394c-1.446-1.839-6.175-3.022-6.175-4.205
				c-0.066-1.905,3.863-1.611,5.518-2.825c0.985-0.722,1.209-3.151,1.313-4.993c0.395-6.899,4.469,1.183,6.834,3.548
				c1.839,1.972,3.942,1.314,6.57,1.314C-26.75,17.073-24.254,17.007-26.355,19.307"/>
		</g>
		<g transform="matrix(1.1892 0 0 1.1892 1288.9 452.2)">
			<path fill="#FFCC00" d="M-26.188,19.283c-1.477,1.539-3.199,3.322-3.199,3.877c0,1.618,1.475,3.2,0.984,5.046
				c-1.045,1.293-6.4-1.969-7.262-0.985c-0.975,1.115-4.985,4.553-5.724,4.062c-1.334-0.891-0.429-5.539-0.429-7.139l-0.123-0.368
				c-1.354-1.723-5.785-2.832-5.785-3.939c-0.062-1.784,3.619-1.508,5.17-2.645c0.922-0.678,1.131-2.954,1.229-4.678
				c0.37-6.461,4.187,1.108,6.401,3.322c1.722,1.848,3.691,1.232,6.154,1.232C-26.558,17.192-24.218,17.13-26.188,19.283"/>
		</g>
		<g transform="matrix(1.1892 0 0 1.1892 1266.1 466.96)">
			<path fill="#B87C00" d="M-22.353,16.801c0,0,2.563-6.833,4.402-7.818C-17.951,8.983-19.921,13.78-22.353,16.801"/>
		</g>
		<g transform="matrix(1.1892 0 0 1.1892 1259.7 451.67)">
			<path fill="#B87C00" d="M-21.276,19.372c0,0,6.668,0.558,8.438,1.905C-12.838,21.277-17.707,20.891-21.276,19.372"/>
		</g>
		<g transform="matrix(1.175 .18353 -.18353 1.175 1273.8 454.25)">
			<path fill="#B87C00" d="M-20.441,22.361c0,0,5.98-3.154,7.95-2.694C-12.491,19.666-16.533,21.745-20.441,22.361"/>
		</g>
		<g transform="matrix(1.1892 0 0 1.1892 1273.1 453.68)">
			<path fill="#B87C00" d="M-23.53,19.035c0,0-1.544-6.739-3.205-7.894C-26.735,11.14-25.688,15.721-23.53,19.035"/>
		</g>
		
			<ellipse transform="matrix(-0.1166 0.9932 -0.9932 -0.1166 1849.4951 -693.7247)" opacity="0.999" fill="#B87C00" enable-background="new    " cx="1233.278" cy="475.692" rx="0.657" ry="-0.647"/>
		
			<ellipse transform="matrix(-0.1166 0.9932 -0.9932 -0.1166 1851.6949 -694.8496)" opacity="0.999" fill="#B87C00" enable-background="new    " cx="1234.879" cy="476.108" rx="0.417" ry="-0.411"/>
		
			<ellipse transform="matrix(-0.1166 0.9932 -0.9932 -0.1166 1853.4098 -695.7993)" opacity="0.999" fill="#B87C00" enable-background="new    " cx="1236.158" cy="476.396" rx="0.343" ry="-0.343"/>
		
			<ellipse transform="matrix(-0.1166 0.9932 -0.9932 -0.1166 1855.2285 -696.6326)" opacity="0.999" fill="#B87C00" enable-background="new    " cx="1237.438" cy="476.788" rx="0.366" ry="-0.373"/>
		
			<ellipse transform="matrix(-0.1166 0.9932 -0.9932 -0.1166 1856.896 -697.6355)" opacity="0.999" fill="#B87C00" enable-background="new    " cx="1238.718" cy="477.028" rx="0.41" ry="-0.373"/>
		
			<ellipse transform="matrix(-0.1166 0.9932 -0.9932 -0.1166 1858.6924 -698.674)" opacity="0.999" fill="#B87C00" enable-background="new    " cx="1240.078" cy="477.308" rx="0.397" ry="-0.358"/>
		
			<ellipse transform="matrix(-0.1166 0.9932 -0.9932 -0.1166 1860.36 -699.677)" opacity="0.999" fill="#B87C00" enable-background="new    " cx="1241.358" cy="477.548" rx="0.357" ry="-0.358"/>
		
			<ellipse transform="matrix(-0.1166 0.9932 -0.9932 -0.1166 1863.0557 -702.0427)" opacity="0.999" fill="#B87C00" enable-background="new    " cx="1243.758" cy="477.564" rx="0.299" ry="-0.293"/>
		
			<ellipse transform="matrix(-0.1166 0.9932 -0.9932 -0.1166 1861.8988 -700.6459)" opacity="0.999" fill="#B87C00" enable-background="new    " cx="1242.558" cy="477.748" rx="0.33" ry="-0.325"/>
		
			<ellipse transform="matrix(0.5861 -0.8102 0.8102 0.5861 135.8541 1197.9966)" opacity="0.999" fill="#B87C00" enable-background="new    " cx="1240.483" cy="466.029" rx="0.646" ry="-0.658"/>
		
			<ellipse transform="matrix(0.5865 -0.81 0.81 0.5865 134.3914 1198.4834)" opacity="0.999" fill="#B87C00" enable-background="new    " cx="1240.9" cy="467.629" rx="0.41" ry="-0.419"/>
		
			<ellipse transform="matrix(-0.1166 0.9932 -0.9932 -0.1166 1851.6617 -709.2633)" opacity="0.999" fill="#B87C00" enable-background="new    " cx="1241.272" cy="468.886" rx="0.343" ry="-0.344"/>
		
			<ellipse transform="matrix(0.5863 -0.8101 0.8101 0.5863 132.722 1200.2854)" opacity="0.999" fill="#B87C00" enable-background="new    " cx="1241.554" cy="470.195" rx="0.373" ry="-0.366"/>
		
			<ellipse transform="matrix(0.5863 -0.8101 0.8101 0.5863 131.8938 1201.1323)" opacity="0.999" fill="#B87C00" enable-background="new    " cx="1241.969" cy="471.43" rx="0.373" ry="-0.411"/>
		
			<ellipse transform="matrix(0.5866 -0.8099 0.8099 0.5866 130.7356 1201.6246)" opacity="0.999" fill="#B87C00" enable-background="new    " cx="1242.389" cy="472.754" rx="0.357" ry="-0.398"/>
		
			<ellipse transform="matrix(-0.1166 0.9932 -0.9932 -0.1166 1858.4375 -705.0873)" opacity="0.999" fill="#B87C00" enable-background="new    " cx="1242.803" cy="473.988" rx="0.358" ry="-0.358"/>
		
			<ellipse transform="matrix(0.586 -0.8103 0.8103 0.586 129.1854 1205.0471)" opacity="0.999" fill="#B87C00" enable-background="new    " cx="1243.96" cy="476.091" rx="0.293" ry="-0.298"/>
		
			<ellipse transform="matrix(0.5864 -0.81 0.81 0.5864 129.3248 1203.5447)" opacity="0.999" fill="#B87C00" enable-background="new    " cx="1243.214" cy="475.133" rx="0.324" ry="-0.331"/>
		
			<ellipse transform="matrix(-0.8679 -0.4968 0.4968 -0.8679 2111.8154 1508.8044)" opacity="0.999" fill="#B87C00" enable-background="new    " cx="1256.562" cy="473.555" rx="0.646" ry="-0.658"/>
		
			<ellipse transform="matrix(-0.8682 -0.4962 0.4962 -0.8682 2109.4229 1507.8024)" opacity="0.999" fill="#B87C00" enable-background="new    " cx="1254.927" cy="473.799" rx="0.41" ry="-0.418"/>
		
			<ellipse transform="matrix(-0.1166 0.9932 -0.9932 -0.1166 1870.53 -715.6847)" opacity="0.999" fill="#B87C00" enable-background="new    " cx="1253.563" cy="474.067" rx="0.343" ry="-0.343"/>
		
			<ellipse transform="matrix(-0.8684 -0.4959 0.4959 -0.8684 2104.604 1506.9879)" opacity="0.999" fill="#B87C00" enable-background="new    " cx="1252.305" cy="474.177" rx="0.373" ry="-0.365"/>
		
			<ellipse transform="matrix(-0.8678 -0.4969 0.4969 -0.8678 2100.7981 1507.8403)" opacity="0.999" fill="#B87C00" enable-background="new    " cx="1250.959" cy="474.49" rx="0.373" ry="-0.411"/>
		
			<ellipse transform="matrix(-0.8683 -0.4961 0.4961 -0.8683 2099.1328 1506.9083)" opacity="0.999" fill="#B87C00" enable-background="new    " cx="1249.643" cy="474.746" rx="0.358" ry="-0.397"/>
		
			<ellipse transform="matrix(-0.1166 0.9932 -0.9932 -0.1166 1865.6821 -709.4465)" opacity="0.999" fill="#B87C00" enable-background="new    " cx="1248.364" cy="475.03" rx="0.357" ry="-0.358"/>
		
			<ellipse transform="matrix(-0.8683 -0.4961 0.4961 -0.8683 2092.0173 1507.4481)" opacity="0.999" fill="#B87C00" enable-background="new    " cx="1246.165" cy="475.95" rx="0.293" ry="-0.298"/>
		
			<ellipse transform="matrix(-0.8683 -0.496 0.496 -0.8683 2094.2935 1506.6877)" opacity="0.999" fill="#B87C00" enable-background="new    " cx="1247.16" cy="475.326" rx="0.325" ry="-0.331"/>
		
			<ellipse transform="matrix(-0.8987 0.4385 -0.4385 -0.8987 2594.2397 369.9612)" opacity="0.999" fill="#B87C00" enable-background="new    " cx="1254.401" cy="484.534" rx="0.646" ry="-0.658"/>
		
			<ellipse transform="matrix(-0.899 0.438 -0.438 -0.899 2591.6387 368.8542)" opacity="0.999" fill="#B87C00" enable-background="new    " cx="1253.28" cy="483.32" rx="0.411" ry="-0.419"/>
		
			<ellipse transform="matrix(-0.1166 0.9932 -0.9932 -0.1166 1877.3265 -705.1931)" opacity="0.999" fill="#B87C00" enable-background="new    " cx="1252.295" cy="482.336" rx="0.343" ry="-0.344"/>
		
			<ellipse transform="matrix(-0.8992 0.4376 -0.4376 -0.8992 2587.4421 366.5547)" opacity="0.999" fill="#B87C00" enable-background="new    " cx="1251.492" cy="481.365" rx="0.373" ry="-0.365"/>
		
			<ellipse transform="matrix(-0.8987 0.4385 -0.4385 -0.8987 2585.1353 363.9294)" opacity="0.999" fill="#B87C00" enable-background="new    " cx="1250.545" cy="480.471" rx="0.373" ry="-0.411"/>
		
			<ellipse transform="matrix(-0.8989 0.4381 -0.4381 -0.8989 2582.875 363.0409)" opacity="0.999" fill="#B87C00" enable-background="new    " cx="1249.555" cy="479.495" rx="0.358" ry="-0.397"/>
		
			<ellipse transform="matrix(-0.1166 0.9932 -0.9932 -0.1166 1869.5002 -705.701)" opacity="0.999" fill="#B87C00" enable-background="new    " cx="1248.607" cy="478.601" rx="0.358" ry="-0.358"/>
		
			<ellipse transform="matrix(-0.8993 0.4373 -0.4373 -0.8993 2576.4014 361.4153)" opacity="0.999" fill="#B87C00" enable-background="new    " cx="1246.596" cy="477.292" rx="0.293" ry="-0.298"/>
		
			<ellipse transform="matrix(-0.8987 0.4386 -0.4386 -0.8987 2578.405 359.9305)" opacity="0.999" fill="#B87C00" enable-background="new    " cx="1247.634" cy="477.748" rx="0.324" ry="-0.331"/>
		<g transform="matrix(.50218 1.078 -1.078 .50218 1273.7 454.79)">
			<path fill="#B87C00" d="M7.106,29.379c0,0,5.98-3.154,7.951-2.694C15.057,26.684,11.015,28.763,7.106,29.379"/>
		</g>
		
			<ellipse transform="matrix(-0.8744 -0.4852 0.4852 -0.8744 2088.0923 1516.29)" opacity="0.999" fill="#B87C00" enable-background="new    " cx="1240.279" cy="487.912" rx="0.646" ry="-0.658"/>
		
			<ellipse transform="matrix(-0.8747 -0.4847 0.4847 -0.8747 2090.9346 1513.6287)" opacity="0.999" fill="#B87C00" enable-background="new    " cx="1241.149" cy="486.498" rx="0.411" ry="-0.418"/>
		
			<ellipse transform="matrix(-0.6856 -0.728 0.728 -0.6856 1739.8777 1722.1814)" opacity="0.999" fill="#B87C00" enable-background="new    " cx="1241.848" cy="485.36" rx="0.343" ry="-0.343"/>
		
			<ellipse transform="matrix(-0.8743 -0.4855 0.4855 -0.8743 2093.7283 1510.8499)" opacity="0.999" fill="#B87C00" enable-background="new    " cx="1242.53" cy="484.272" rx="0.373" ry="-0.365"/>
		
			<ellipse transform="matrix(-0.8743 -0.4855 0.4855 -0.8743 2095.4751 1508.9497)" opacity="0.999" fill="#B87C00" enable-background="new    " cx="1243.158" cy="483.095" rx="0.373" ry="-0.41"/>
		
			<ellipse transform="matrix(-0.874 -0.486 0.486 -0.874 2096.7959 1507.5699)" opacity="0.999" fill="#B87C00" enable-background="new    " cx="1243.87" cy="481.913" rx="0.358" ry="-0.397"/>
		
			<ellipse transform="matrix(-0.6856 -0.728 0.728 -0.6856 1747.6798 1716.3523)" opacity="0.999" fill="#B87C00" enable-background="new    " cx="1244.49" cy="480.761" rx="0.358" ry="-0.357"/>
		
			<ellipse transform="matrix(-0.8739 -0.4861 0.4861 -0.8739 2100.8198 1501.939)" opacity="0.999" fill="#B87C00" enable-background="new    " cx="1245.214" cy="478.489" rx="0.293" ry="-0.298"/>
		
			<ellipse transform="matrix(-0.8741 -0.4857 0.4857 -0.8741 2100.3945 1503.5815)" opacity="0.999" fill="#B87C00" enable-background="new    " cx="1245.014" cy="479.646" rx="0.325" ry="-0.331"/>
		<path fill="none" stroke="#00AAB3" stroke-width="1.28" stroke-linecap="round" stroke-linejoin="round" d="M1382.936,454.223"/>
		<path fill="none" stroke="#00AAB3" stroke-width="1.28" stroke-linecap="round" stroke-linejoin="round" d="M1391.245,447.009"/>
		<path fill="none" stroke="#00AAB3" stroke-width="1.28" stroke-linecap="round" stroke-linejoin="round" d="M1364.716,431.692"/>
		<path fill="none" stroke="#00AAB3" stroke-width="1.28" stroke-linecap="round" stroke-linejoin="round" d="M1468.774,454.223"/>
		<path fill="none" stroke="#00AAB3" stroke-width="1.28" stroke-linecap="round" stroke-linejoin="round" d="M1452.475,437.925"/>
		<path fill="none" stroke="#00AAB3" stroke-width="1.28" stroke-linecap="round" stroke-linejoin="round" d="M1477.083,447.009"/>
		<path fill="none" stroke="#00AAB3" stroke-width="1.28" stroke-linecap="round" stroke-linejoin="round" d="M1450.555,431.692"/>
		<path fill="none" stroke="#00AAB3" stroke-width="0.8894" stroke-linecap="round" stroke-linejoin="round" d="M1212.044,460.37"/>
		<path fill="none" stroke="#00AAB3" stroke-width="0.8894" stroke-linecap="round" stroke-linejoin="round" d="M1200.719,449.044"
			/>
		<path fill="none" stroke="#00AAB3" stroke-width="0.8894" stroke-linecap="round" stroke-linejoin="round" d="M1217.872,455.359"
			/>
		<path fill="none" stroke="#00AAB3" stroke-width="0.8894" stroke-linecap="round" stroke-linejoin="round" d="M1199.439,444.716"
			/>
	</g>
</g>
</svg>
