<?xml version="1.0" encoding="utf-8"?>
<!-- Generator: Adobe Illustrator 16.0.0, SVG Export Plug-In . SVG Version: 6.00 Build 0)  -->
<!DOCTYPE svg PUBLIC "-//W3C//DTD SVG 1.1//EN" "http://www.w3.org/Graphics/SVG/1.1/DTD/svg11.dtd">
<svg version="1.1" xmlns="http://www.w3.org/2000/svg" xmlns:xlink="http://www.w3.org/1999/xlink" x="0px" y="0px" width="1280px"
	 height="800px" viewBox="0 0 1280 800" enable-background="new 0 0 1280 800" xml:space="preserve">
<g id="Ebene_1" display="none">
	<desc  id="desc3018">Matlab Figure Converted by PLOT2SVG written by Juerg Schwizer</desc>
	<g id="g3022" transform="translate(-51.9375,-123.21875)" display="inline">
		<g id="g3027">
			<g>
				<defs>
					<rect id="SVGID_1_" x="50.938" y="-115.289" width="1279.206" height="1008.919"/>
				</defs>
				<clipPath id="SVGID_2_">
					<use xlink:href="#SVGID_1_"  overflow="visible"/>
				</clipPath>
				<g id="g3029" clip-path="url(#SVGID_2_)">
					<polyline id="polyline3031" fill="#1A9AC7" points="55.328,348.667 56.608,348.667 57.889,348.658 59.169,348.647 
						60.449,348.627 61.731,348.606 63.012,348.577 64.292,348.543 65.569,348.507 66.853,348.459 68.133,348.415 69.412,348.361 
						70.695,348.304 71.975,348.242 73.254,348.171 74.536,348.102 75.816,348.024 77.095,347.939 78.377,347.854 79.658,347.763 
						80.937,347.669 82.22,347.57 83.5,347.465 84.778,347.355 86.057,347.244 87.341,347.124 88.621,347.004 89.898,346.876 
						91.183,346.75 92.463,346.613 93.741,346.475 95.024,346.332 96.304,346.187 97.582,346.034 98.867,345.881 100.146,345.726 
						101.424,345.564 102.704,345.399 103.988,345.229 105.266,345.055 106.545,344.879 107.83,344.702 109.107,344.516 
						110.387,344.331 111.671,344.14 112.949,343.946 114.229,343.749 115.513,343.545 116.791,343.341 118.07,343.132 
						119.354,342.923 120.633,342.706 121.913,342.49 123.192,342.268 124.474,342.04 125.754,341.813 127.035,341.578 
						128.317,341.343 129.596,341.104 130.875,340.86 132.16,340.612 133.437,340.361 134.717,340.104 136.001,339.844 
						137.28,339.584 138.559,339.315 139.839,339.044 141.121,338.771 142.4,338.491 143.681,338.21 144.963,337.924 
						146.242,337.632 147.522,337.339 148.804,337.039 150.083,336.738 151.364,336.427 152.646,336.119 153.925,335.801 
						155.206,335.482 156.488,335.157 157.767,334.827 159.047,334.496 160.325,334.159 161.609,333.816 162.89,333.469 
						164.167,333.117 165.45,332.765 166.731,332.405 168.008,332.042 169.292,331.673 170.573,331.303 171.85,330.922 
						173.133,330.544 174.414,330.161 175.692,329.77 176.973,329.38 178.256,328.989 179.534,328.588 180.813,328.183 
						182.097,327.778 183.375,327.371 184.656,326.958 185.939,326.541 187.217,326.125 188.497,325.703 189.781,325.282 
						191.059,324.856 192.339,324.431 193.623,324.003 194.903,323.575 196.18,323.143 197.46,322.712 198.744,322.279 
						200.022,321.845 201.302,321.412 202.585,320.979 203.863,320.544 205.144,320.111 206.429,319.677 207.705,319.249 
						208.986,318.822 210.268,318.396 211.546,317.971 212.827,317.55 214.106,317.127 215.389,316.711 216.669,316.302 
						217.948,315.894 219.231,315.49 220.51,315.091 221.79,314.697 223.073,314.306 224.353,313.925 225.631,313.547 
						226.915,313.181 228.194,312.812 229.473,312.456 230.756,312.107 232.036,311.769 233.315,311.434 234.593,311.111 
						235.878,310.794 237.157,310.488 238.435,310.192 239.718,309.903 240.998,309.626 242.276,309.363 243.561,309.105 
						244.841,308.863 246.119,308.627 247.402,308.406 248.683,308.194 249.96,307.997 251.24,307.813 252.525,307.638 
						253.803,307.477 255.082,307.328 256.366,307.192 257.645,307.072 258.923,306.962 260.208,306.866 261.487,306.782 
						262.765,306.713 264.049,306.66 265.329,306.618 266.607,306.589 267.892,306.577 269.17,306.577 270.448,306.589 
						271.728,306.618 273.012,306.66 274.29,306.713 275.571,306.782 276.854,306.866 278.131,306.962 279.412,307.072 
						280.695,307.192 281.974,307.328 283.254,307.477 284.538,307.638 285.815,307.813 287.095,307.997 288.375,308.194 
						289.658,308.406 290.938,308.627 292.217,308.863 293.499,309.105 294.779,309.363 296.059,309.626 297.341,309.903 
						298.621,310.192 299.9,310.488 301.182,310.794 302.462,311.111 303.741,311.434 305.023,311.769 306.304,312.107 
						307.583,312.456 308.861,312.812 310.145,313.181 311.424,313.547 312.703,313.925 313.987,314.306 315.266,314.697 
						316.544,315.091 317.829,315.49 319.107,315.894 320.389,316.302 321.67,316.711 322.95,317.127 324.231,317.55 
						325.508,317.971 326.792,318.396 328.072,318.822 329.35,319.249 330.634,319.677 331.914,320.111 333.191,320.544 
						334.476,320.979 335.755,321.412 337.033,321.845 338.317,322.279 339.597,322.712 340.875,323.143 342.159,323.575 
						343.438,324.003 344.716,324.431 345.996,324.856 347.28,325.282 348.558,325.703 349.837,326.125 351.122,326.541 
						352.4,326.958 353.68,327.371 354.963,327.778 356.241,328.183 357.521,328.588 358.805,328.989 360.083,329.38 
						361.363,329.77 362.643,330.161 363.926,330.544 365.205,330.922 366.484,331.303 367.767,331.673 369.046,332.042 
						370.327,332.405 371.609,332.765 372.888,333.117 374.168,333.469 375.45,333.816 376.729,334.159 378.01,334.496 
						379.292,334.827 380.571,335.157 381.852,335.482 383.13,335.801 384.413,336.119 385.693,336.427 386.973,336.738 
						388.255,337.039 389.536,337.339 390.815,337.632 392.096,337.924 393.377,338.21 394.656,338.491 395.938,338.771 
						397.219,339.044 398.498,339.315 399.776,339.584 401.06,339.844 402.34,340.104 403.617,340.361 404.902,340.612 
						406.182,340.86 407.459,341.104 408.743,341.343 410.023,341.578 411.302,341.813 412.585,342.04 413.865,342.268 
						415.143,342.49 416.426,342.706 417.706,342.923 418.985,343.132 420.265,343.341 421.548,343.545 422.826,343.749 
						424.106,343.946 425.39,344.14 426.668,344.331 427.948,344.516 429.231,344.702 430.509,344.879 431.79,345.055 
						433.073,345.229 434.351,345.399 435.632,345.564 436.911,345.726 438.192,345.881 439.473,346.034 440.752,346.187 
						442.034,346.332 443.315,346.475 444.594,346.613 445.878,346.75 447.156,346.876 448.436,347.004 449.721,347.124 
						450.999,347.244 452.277,347.355 453.562,347.465 454.84,347.57 456.119,347.669 457.399,347.763 458.682,347.854 
						459.961,347.939 461.242,348.024 462.523,348.102 463.802,348.171 465.082,348.242 466.364,348.304 467.644,348.361 
						468.924,348.415 470.206,348.459 471.485,348.507 472.766,348.543 474.044,348.577 475.329,348.606 476.608,348.627 
						477.886,348.647 479.171,348.658 480.45,348.667 481.728,348.667 483.012,348.667 484.291,348.658 485.569,348.647 
						486.854,348.627 488.133,348.606 489.411,348.577 490.695,348.543 491.975,348.507 493.252,348.459 494.531,348.415 
						495.816,348.361 497.094,348.304 498.374,348.242 499.658,348.171 500.936,348.102 502.215,348.024 503.5,347.939 
						504.777,347.854 506.057,347.763 507.341,347.669 508.621,347.57 509.898,347.465 511.179,347.355 512.463,347.244 
						513.741,347.124 515.021,347.004 516.305,346.876 517.583,346.75 518.862,346.613 520.147,346.475 521.425,346.332 
						522.704,346.187 523.987,346.034 525.267,345.881 526.546,345.726 527.83,345.564 529.108,345.399 530.387,345.229 
						531.667,345.055 532.95,344.879 534.229,344.702 535.51,344.516 536.791,344.331 538.07,344.14 539.352,343.946 
						540.633,343.749 541.912,343.545 543.193,343.341 544.475,343.132 545.753,342.923 547.035,342.706 548.313,342.49 
						549.596,342.268 550.877,342.04 552.154,341.813 553.437,341.578 554.718,341.343 555.996,341.104 557.28,340.86 
						558.56,340.612 559.837,340.361 561.121,340.104 562.401,339.844 563.679,339.584 564.963,339.315 566.243,339.044 
						567.521,338.771 568.8,338.491 570.083,338.21 571.362,337.924 572.642,337.632 573.926,337.339 575.204,337.039 
						576.483,336.738 577.768,336.427 579.048,336.119 580.326,335.801 581.609,335.482 582.89,335.157 584.167,334.827 
						585.447,334.496 586.731,334.159 588.009,333.816 589.289,333.469 590.573,333.117 591.851,332.765 593.13,332.405 
						594.415,332.042 595.693,331.673 596.973,331.303 598.256,330.922 599.533,330.544 600.814,330.161 602.098,329.77 
						603.375,329.38 604.656,328.989 605.935,328.588 607.217,328.183 608.497,327.778 609.776,327.371 611.059,326.958 
						612.339,326.541 613.619,326.125 614.901,325.703 616.181,325.282 617.46,324.856 618.742,324.431 620.022,324.003 
						621.302,323.575 622.58,323.143 623.864,322.712 625.144,322.279 626.422,321.845 627.707,321.412 628.985,320.979 
						630.263,320.544 631.548,320.111 632.828,319.677 634.105,319.249 635.389,318.822 636.669,318.396 637.947,317.971 
						639.231,317.55 640.511,317.127 641.791,316.711 643.068,316.302 644.352,315.894 645.632,315.49 646.91,315.091 
						648.194,314.697 649.474,314.306 650.752,313.925 652.036,313.547 653.315,313.181 654.594,312.812 655.877,312.456 
						657.158,312.107 658.435,311.769 659.715,311.434 660.999,311.111 662.278,310.794 663.557,310.488 664.841,310.192 
						666.119,309.903 667.398,309.626 668.682,309.363 669.96,309.105 671.241,308.863 672.524,308.627 673.8,308.406 
						675.083,308.194 676.366,307.997 677.643,307.813 678.925,307.638 680.203,307.477 681.483,307.328 682.766,307.192 
						684.043,307.072 685.326,306.962 686.608,306.866 687.886,306.782 689.168,306.713 690.449,306.66 691.727,306.618 
						693.01,306.589 694.292,306.577 695.569,306.577 696.847,306.589 698.134,306.618 699.41,306.66 700.688,306.713 
						701.976,306.782 703.253,306.866 704.53,306.962 705.816,307.072 707.095,307.192 708.373,307.328 709.658,307.477 
						710.937,307.638 712.214,307.813 713.496,307.997 714.778,308.194 716.057,308.406 717.337,308.627 718.62,308.863 
						719.897,309.105 721.18,309.363 722.462,309.626 723.739,309.903 725.021,310.192 726.303,310.488 727.581,310.794 
						728.863,311.111 730.146,311.434 731.423,311.769 732.705,312.107 733.983,312.456 735.265,312.812 736.547,313.181 
						737.824,313.547 739.105,313.925 740.389,314.306 741.666,314.697 742.952,315.091 744.229,315.49 745.508,315.894 
						746.793,316.302 748.071,316.711 749.349,317.127 750.631,317.55 751.912,317.971 753.191,318.396 754.472,318.822 
						755.755,319.249 757.032,319.677 758.314,320.111 759.596,320.544 760.874,320.979 762.155,321.412 763.438,321.845 
						764.716,322.279 765.998,322.712 767.28,323.143 768.558,323.575 769.84,324.003 771.118,324.431 772.398,324.856 
						773.682,325.282 774.959,325.703 776.241,326.125 777.522,326.541 778.801,326.958 780.082,327.371 781.364,327.778 
						782.643,328.183 783.924,328.588 785.206,328.989 786.484,329.38 787.762,329.77 789.048,330.161 790.326,330.544 
						791.604,330.922 792.89,331.303 794.168,331.673 795.445,332.042 796.731,332.405 798.009,332.765 799.287,333.117 
						800.573,333.469 801.852,333.816 803.129,334.159 804.415,334.496 805.692,334.827 806.97,335.157 808.252,335.482 
						809.534,335.801 810.812,336.119 812.094,336.427 813.376,336.738 814.653,337.039 815.936,337.339 817.217,337.632 
						818.495,337.924 819.777,338.21 821.06,338.491 822.338,338.771 823.619,339.044 824.896,339.315 826.179,339.584 
						827.461,339.844 828.738,340.104 830.021,340.361 831.303,340.612 832.58,340.86 833.862,341.104 835.144,341.343 
						836.422,341.578 837.704,341.813 838.986,342.04 840.264,342.268 841.546,342.49 842.827,342.706 844.104,342.923 
						845.384,343.132 846.669,343.341 847.947,343.545 849.225,343.749 850.511,343.946 851.789,344.14 853.067,344.331 
						854.354,344.516 855.631,344.702 856.908,344.879 858.194,345.055 859.473,345.229 860.751,345.399 862.031,345.564 
						863.314,345.726 864.592,345.881 865.874,346.034 867.156,346.187 868.438,346.332 869.715,346.475 870.997,346.613 
						872.28,346.75 873.557,346.876 874.84,347.004 876.12,347.124 877.398,347.244 878.68,347.355 879.963,347.465 881.239,347.57 
						882.518,347.669 883.805,347.763 885.082,347.854 886.359,347.939 887.646,348.024 888.924,348.102 890.202,348.171 
						891.488,348.242 892.766,348.304 894.043,348.361 895.329,348.415 896.607,348.459 897.886,348.507 899.166,348.543 
						900.449,348.577 901.727,348.606 903.009,348.627 904.29,348.647 905.568,348.658 906.85,348.667 908.132,348.667 
						909.41,348.667 910.692,348.658 911.974,348.647 913.252,348.627 914.534,348.606 915.815,348.577 917.094,348.543 
						918.376,348.507 919.653,348.459 920.936,348.415 922.217,348.361 923.495,348.304 924.776,348.242 926.06,348.171 
						927.337,348.102 928.619,348.024 929.901,347.939 931.179,347.854 932.459,347.763 933.743,347.669 935.019,347.57 
						936.299,347.465 937.585,347.355 938.862,347.244 940.14,347.124 941.425,347.004 942.703,346.876 943.981,346.75 
						945.268,346.613 946.545,346.475 947.822,346.332 949.108,346.187 950.387,346.034 951.665,345.881 952.95,345.726 
						954.228,345.564 955.506,345.399 956.788,345.229 958.07,345.055 959.348,344.879 960.63,344.702 961.911,344.516 
						963.189,344.331 964.473,344.14 965.754,343.946 967.032,343.749 968.314,343.545 969.596,343.341 970.872,343.132 
						972.155,342.923 973.434,342.706 974.715,342.49 975.997,342.268 977.275,342.04 978.558,341.813 979.839,341.578 
						981.116,341.343 982.398,341.104 983.681,340.86 984.958,340.612 986.24,340.361 987.521,340.104 988.8,339.844 
						990.085,339.584 991.363,339.315 992.642,339.044 993.925,338.771 995.205,338.491 996.482,338.21 997.766,337.924 
						999.048,337.632 1000.323,337.339 1001.607,337.039 1002.89,336.738 1004.167,336.427 1005.449,336.119 1006.73,335.801 
						1008.009,335.482 1009.291,335.157 1010.568,334.827 1011.851,334.496 1013.132,334.159 1014.41,333.816 1015.691,333.469 
						1016.974,333.117 1018.251,332.765 1019.533,332.405 1020.814,332.042 1022.093,331.673 1023.375,331.303 1024.656,330.922 
						1025.935,330.544 1027.217,330.161 1028.497,329.77 1029.776,329.38 1031.054,328.989 1032.34,328.588 1033.617,328.183 
						1034.896,327.778 1036.183,327.371 1037.461,326.958 1038.738,326.541 1040.024,326.125 1041.302,325.703 1042.58,325.282 
						1043.866,324.856 1045.144,324.431 1046.422,324.003 1047.703,323.575 1048.985,323.143 1050.264,322.712 1051.545,322.279 
						1052.827,321.845 1054.104,321.412 1055.387,320.979 1056.669,320.544 1057.946,320.111 1059.228,319.677 1060.51,319.249 
						1061.788,318.822 1063.069,318.396 1064.352,317.971 1065.629,317.55 1066.911,317.127 1068.19,316.711 1069.471,316.302 
						1070.754,315.894 1072.03,315.49 1073.313,315.091 1074.596,314.697 1075.873,314.306 1077.154,313.925 1078.437,313.547 
						1079.715,313.181 1080.996,312.812 1082.278,312.456 1083.557,312.107 1084.834,311.769 1086.12,311.434 1087.397,311.111 
						1088.676,310.794 1089.962,310.488 1091.239,310.192 1092.518,309.903 1093.803,309.626 1095.081,309.363 1096.359,309.105 
						1097.645,308.863 1098.923,308.627 1100.2,308.406 1101.486,308.194 1102.766,307.997 1104.042,307.813 1105.325,307.638 
						1106.605,307.477 1107.885,307.328 1109.167,307.192 1110.448,307.072 1111.73,306.962 1113.008,306.866 1114.289,306.782 
						1115.571,306.713 1116.85,306.66 1118.132,306.618 1119.413,306.589 1120.691,306.577 1121.97,306.577 1123.255,306.589 
						1124.533,306.618 1125.811,306.66 1127.097,306.713 1128.375,306.782 1129.654,306.866 1130.939,306.962 1132.218,307.072 
						1133.493,307.192 1134.781,307.328 1136.058,307.477 1137.336,307.638 1138.621,307.813 1139.9,307.997 1141.179,308.194 
						1142.458,308.406 1143.742,308.627 1145.021,308.863 1146.302,309.105 1147.584,309.363 1148.861,309.626 1150.143,309.903 
						1151.425,310.192 1152.703,310.488 1153.984,310.794 1155.267,311.111 1156.545,311.434 1157.825,311.769 1159.104,312.107 
						1160.387,312.456 1161.668,312.812 1162.945,313.181 1164.227,313.547 1165.509,313.925 1166.789,314.306 1168.069,314.697 
						1169.353,315.091 1170.629,315.49 1171.91,315.894 1173.192,316.302 1174.471,316.711 1175.752,317.127 1177.035,317.55 
						1178.312,317.971 1179.592,318.396 1180.875,318.822 1182.155,319.249 1183.433,319.677 1184.719,320.111 1185.996,320.544 
						1187.274,320.979 1188.56,321.412 1189.838,321.845 1191.115,322.279 1192.401,322.712 1193.679,323.143 1194.958,323.575 
						1196.238,324.003 1197.521,324.431 1198.799,324.856 1200.08,325.282 1201.362,325.703 1202.641,326.125 1203.922,326.541 
						1205.204,326.958 1206.481,327.371 1207.764,327.778 1209.047,328.183 1210.325,328.588 1211.605,328.989 1212.889,329.38 
						1214.166,329.77 1215.446,330.161 1216.725,330.544 1218.008,330.922 1219.29,331.303 1220.567,331.673 1221.85,332.042 
						1223.131,332.405 1224.409,332.765 1225.691,333.117 1226.973,333.469 1228.25,333.816 1229.532,334.159 1230.813,334.496 
						1232.092,334.827 1233.37,335.157 1234.656,335.482 1235.934,335.801 1237.212,336.119 1238.497,336.427 1239.775,336.738 
						1241.053,337.039 1242.339,337.339 1243.616,337.632 1244.898,337.924 1246.182,338.21 1247.46,338.491 1248.741,338.771 
						1250.021,339.044 1251.303,339.315 1252.581,339.584 1253.861,339.844 1255.143,340.104 1256.424,340.361 1257.7,340.612 
						1258.984,340.86 1260.266,341.104 1261.544,341.343 1262.826,341.578 1264.107,341.813 1265.385,342.04 1266.67,342.268 
						1267.949,342.49 1269.228,342.706 1270.505,342.923 1271.79,343.132 1273.067,343.341 1274.346,343.545 1275.632,343.749 
						1276.91,343.946 1278.188,344.14 1279.474,344.331 1280.751,344.516 1282.029,344.702 1283.316,344.879 1284.595,345.055 
						1285.871,345.229 1287.156,345.399 1288.434,345.564 1289.715,345.726 1290.996,345.881 1292.277,346.034 1293.555,346.187 
						1294.835,346.332 1296.119,346.475 1297.397,346.613 1298.68,346.75 1299.961,346.876 1301.238,347.004 1302.52,347.124 
						1303.802,347.244 1305.082,347.355 1306.361,347.465 1307.64,347.57 1308.921,347.669 1310.202,347.763 1311.48,347.854 
						1312.764,347.939 1314.045,348.024 1315.322,348.102 1316.604,348.171 1317.889,348.242 1319.164,348.304 1320.448,348.361 
						1321.729,348.415 1323.006,348.459 1324.287,348.507 1325.57,348.543 1326.847,348.577 1328.128,348.606 1329.412,348.627 
						1330.689,348.647 1331.968,348.658 1333.254,348.667 1334.532,348.667 1334.532,458.598 55.328,458.598 55.328,348.667 					
						"/>
					<g id="g3033">
					</g>
				</g>
			</g>
		</g>
	</g>
	<rect x="4" y="335" display="inline" fill="#1A9AC7" width="1274" height="465"/>
</g>
<g id="hg1" display="none">
	<g id="g3022_1_" transform="translate(-51.9375,-123.21875)" display="inline">
		<g id="g3027_1_">
			<g>
				<defs>
					<rect id="SVGID_3_" x="48.188" y="-173.039" width="1285.023" height="1013.507"/>
				</defs>
				<clipPath id="SVGID_4_">
					<use xlink:href="#SVGID_3_"  overflow="visible"/>
				</clipPath>
				<g id="g3029_1_" clip-path="url(#SVGID_4_)">
					<polyline id="polyline3031_1_" fill="#50C3EF" points="52.598,171.477 53.884,171.477 55.171,171.468 56.457,171.457 
						57.743,171.437 59.03,171.416 60.316,171.386 61.602,171.353 62.886,171.316 64.175,171.268 65.461,171.223 66.746,171.169 
						68.035,171.112 69.32,171.05 70.605,170.978 71.894,170.909 73.179,170.831 74.464,170.746 75.752,170.66 77.038,170.569 
						78.323,170.475 79.612,170.375 80.897,170.27 82.182,170.159 83.466,170.047 84.757,169.927 86.042,169.806 87.325,169.677 
						88.616,169.55 89.902,169.413 91.186,169.274 92.475,169.131 93.761,168.985 95.044,168.832 96.335,168.678 97.62,168.522 
						98.904,168.359 100.189,168.194 101.479,168.023 102.763,167.848 104.048,167.672 105.338,167.494 106.622,167.306 
						107.908,167.121 109.197,166.929 110.481,166.734 111.766,166.536 113.057,166.332 114.34,166.126 115.625,165.917 
						116.916,165.707 118.2,165.488 119.485,165.271 120.771,165.048 122.059,164.819 123.344,164.591 124.631,164.355 
						125.919,164.12 127.204,163.879 128.489,163.634 129.779,163.385 131.062,163.133 132.348,162.875 133.638,162.613 
						134.922,162.353 136.208,162.083 137.494,161.81 138.781,161.536 140.066,161.254 141.353,160.973 142.641,160.685 
						143.926,160.392 145.212,160.097 146.499,159.796 147.784,159.494 149.07,159.181 150.359,158.871 151.644,158.552 
						152.93,158.231 154.218,157.905 155.502,157.574 156.789,157.241 158.073,156.902 159.362,156.559 160.649,156.209 
						161.932,155.855 163.221,155.502 164.508,155.141 165.791,154.775 167.08,154.405 168.367,154.033 169.649,153.651 
						170.939,153.271 172.226,152.886 173.51,152.494 174.796,152.102 176.085,151.709 177.369,151.306 178.654,150.899 
						179.943,150.492 181.228,150.083 182.514,149.669 183.803,149.25 185.086,148.832 186.372,148.408 187.663,147.985 
						188.946,147.558 190.232,147.13 191.521,146.7 192.808,146.271 194.091,145.836 195.376,145.403 196.666,144.968 
						197.95,144.533 199.236,144.098 200.525,143.663 201.808,143.226 203.095,142.791 204.386,142.355 205.667,141.925 
						206.955,141.496 208.243,141.067 209.526,140.641 210.813,140.218 212.098,139.793 213.387,139.375 214.672,138.965 
						215.958,138.555 217.247,138.149 218.531,137.748 219.816,137.353 221.105,136.959 222.391,136.576 223.676,136.197 
						224.965,135.829 226.25,135.458 227.535,135.101 228.824,134.75 230.109,134.41 231.394,134.074 232.678,133.75 
						233.969,133.432 235.254,133.124 236.538,132.827 237.827,132.537 239.112,132.258 240.396,131.994 241.687,131.735 
						242.973,131.492 244.257,131.255 245.545,131.032 246.832,130.819 248.115,130.622 249.4,130.437 250.691,130.261 
						251.975,130.099 253.26,129.95 254.55,129.813 255.835,129.693 257.119,129.582 258.41,129.486 259.695,129.401 
						260.979,129.332 262.269,129.279 263.554,129.236 264.838,129.208 266.128,129.195 267.413,129.195 268.696,129.208 
						269.981,129.236 271.271,129.279 272.556,129.332 273.842,129.401 275.131,129.486 276.415,129.582 277.701,129.693 
						278.99,129.813 280.274,129.95 281.561,130.099 282.85,130.261 284.133,130.437 285.419,130.622 286.705,130.819 
						287.993,131.032 289.279,131.255 290.564,131.492 291.852,131.735 293.138,131.994 294.423,132.258 295.711,132.537 
						296.997,132.827 298.282,133.124 299.57,133.432 300.855,133.75 302.141,134.074 303.429,134.41 304.715,134.75 306,135.101 
						307.284,135.458 308.574,135.829 309.859,136.197 311.143,136.576 312.434,136.959 313.718,137.353 315.002,137.748 
						316.292,138.149 317.577,138.555 318.864,138.965 320.151,139.375 321.437,139.793 322.724,140.218 324.007,140.641 
						325.296,141.067 326.583,141.496 327.866,141.925 329.156,142.355 330.442,142.791 331.725,143.226 333.015,143.663 
						334.301,144.098 335.584,144.533 336.874,144.968 338.159,145.403 339.443,145.836 340.733,146.271 342.019,146.7 
						343.302,147.13 344.588,147.558 345.878,147.985 347.161,148.408 348.447,148.832 349.737,149.25 351.021,149.669 
						352.307,150.083 353.596,150.492 354.879,150.899 356.166,151.306 357.455,151.709 358.739,152.102 360.025,152.494 
						361.311,152.886 362.599,153.271 363.884,153.651 365.169,154.033 366.458,154.405 367.743,154.775 369.029,155.141 
						370.317,155.502 371.602,155.855 372.888,156.209 374.176,156.559 375.461,156.902 376.747,157.241 378.036,157.574 
						379.32,157.905 380.607,158.231 381.891,158.552 383.179,158.871 384.466,159.181 385.751,159.494 387.039,159.796 
						388.326,160.097 389.61,160.392 390.897,160.685 392.184,160.973 393.469,161.254 394.757,161.536 396.044,161.81 
						397.329,162.083 398.612,162.353 399.902,162.613 401.188,162.875 402.471,163.133 403.761,163.385 405.047,163.634 
						406.331,163.879 407.62,164.12 408.906,164.355 410.191,164.591 411.479,164.819 412.765,165.048 414.049,165.271 
						415.338,165.488 416.624,165.707 417.909,165.917 419.194,166.126 420.483,166.332 421.767,166.536 423.053,166.734 
						424.342,166.929 425.627,167.121 426.913,167.306 428.202,167.494 429.485,167.672 430.771,167.848 432.061,168.023 
						433.344,168.194 434.631,168.359 435.916,168.522 437.203,168.678 438.49,168.832 439.774,168.985 441.063,169.131 
						442.349,169.274 443.634,169.413 444.924,169.55 446.208,169.677 447.493,169.806 448.784,169.927 450.068,170.047 
						451.353,170.159 452.643,170.27 453.927,170.375 455.211,170.475 456.498,170.569 457.786,170.66 459.071,170.746 
						460.357,170.831 461.645,170.909 462.93,170.978 464.215,171.05 465.503,171.112 466.789,171.169 468.075,171.223 
						469.363,171.268 470.648,171.316 471.934,171.353 473.218,171.386 474.508,171.416 475.793,171.437 477.077,171.457 
						478.368,171.468 479.653,171.477 480.937,171.477 482.227,171.477 483.512,171.468 484.795,171.457 486.086,171.437 
						487.372,171.416 488.655,171.386 489.945,171.353 491.23,171.316 492.514,171.268 493.798,171.223 495.089,171.169 
						496.373,171.112 497.658,171.05 498.948,170.978 500.232,170.909 501.517,170.831 502.808,170.746 504.091,170.66 
						505.376,170.569 506.667,170.475 507.952,170.375 509.235,170.27 510.522,170.159 511.812,170.047 513.096,169.927 
						514.381,169.806 515.671,169.677 516.955,169.55 518.24,169.413 519.531,169.274 520.814,169.131 522.1,168.985 
						523.389,168.832 524.673,168.678 525.959,168.522 527.249,168.359 528.532,168.194 529.817,168.023 531.104,167.848 
						532.392,167.672 533.677,167.494 534.964,167.306 536.25,167.121 537.536,166.929 538.823,166.734 540.11,166.536 
						541.395,166.332 542.682,166.126 543.969,165.917 545.253,165.707 546.541,165.488 547.824,165.271 549.113,165.048 
						550.4,164.819 551.684,164.591 552.972,164.355 554.259,164.12 555.542,163.879 556.833,163.634 558.118,163.385 
						559.401,163.133 560.691,162.875 561.977,162.613 563.261,162.353 564.55,162.083 565.836,161.81 567.12,161.536 
						568.405,161.254 569.694,160.973 570.979,160.685 572.265,160.392 573.554,160.097 574.838,159.796 576.123,159.494 
						577.413,159.181 578.699,158.871 579.983,158.552 581.272,158.231 582.559,157.905 583.842,157.574 585.128,157.241 
						586.417,156.902 587.702,156.559 588.987,156.209 590.277,155.855 591.561,155.502 592.846,155.141 594.136,154.775 
						595.42,154.405 596.706,154.033 597.995,153.651 599.278,153.271 600.564,152.886 601.854,152.494 603.138,152.102 
						604.424,151.709 605.709,151.306 606.997,150.899 608.282,150.492 609.567,150.083 610.855,149.669 612.142,149.25 
						613.428,148.832 614.715,148.408 616.001,147.985 617.287,147.558 618.574,147.13 619.86,146.7 621.146,146.271 
						622.43,145.836 623.719,145.403 625.005,144.968 626.289,144.533 627.579,144.098 628.864,143.663 630.147,143.226 
						631.438,142.791 632.724,142.355 634.007,141.925 635.297,141.496 636.583,141.067 637.866,140.641 639.156,140.218 
						640.442,139.793 641.728,139.375 643.011,138.965 644.301,138.555 645.586,138.149 646.87,137.748 648.16,137.353 
						649.446,136.959 650.729,136.576 652.019,136.197 653.305,135.829 654.589,135.458 655.878,135.101 657.165,134.75 
						658.448,134.41 659.733,134.074 661.023,133.75 662.308,133.432 663.592,133.124 664.883,132.827 666.167,132.537 
						667.451,132.258 668.741,131.994 670.025,131.735 671.312,131.492 672.601,131.255 673.882,131.032 675.172,130.819 
						676.46,130.622 677.743,130.437 679.03,130.261 680.314,130.099 681.601,129.95 682.889,129.813 684.172,129.693 
						685.461,129.582 686.749,129.486 688.032,129.401 689.321,129.332 690.607,129.279 691.891,129.236 693.18,129.208 
						694.468,129.195 695.751,129.195 697.034,129.208 698.327,129.236 699.609,129.279 700.894,129.332 702.187,129.401 
						703.469,129.486 704.752,129.582 706.044,129.693 707.328,129.813 708.612,129.95 709.903,130.099 711.188,130.261 
						712.471,130.437 713.759,130.622 715.047,130.819 716.331,131.032 717.617,131.255 718.906,131.492 720.189,131.735 
						721.478,131.994 722.766,132.258 724.049,132.537 725.337,132.827 726.624,133.124 727.908,133.432 729.196,133.75 
						730.484,134.074 731.768,134.41 733.056,134.75 734.34,135.101 735.627,135.458 736.915,135.829 738.197,136.197 
						739.484,136.576 740.773,136.959 742.057,137.353 743.349,137.748 744.632,138.149 745.916,138.555 747.207,138.965 
						748.491,139.375 749.774,139.793 751.063,140.218 752.35,140.641 753.635,141.067 754.921,141.496 756.21,141.925 
						757.493,142.355 758.781,142.791 760.068,143.226 761.353,143.663 762.64,144.098 763.928,144.533 765.212,144.968 
						766.5,145.403 767.788,145.836 769.071,146.271 770.359,146.7 771.643,147.13 772.93,147.558 774.218,147.985 775.501,148.408 
						776.789,148.832 778.076,149.25 779.36,149.669 780.647,150.083 781.936,150.492 783.22,150.899 784.507,151.306 
						785.795,151.709 787.079,152.102 788.362,152.494 789.654,152.886 790.938,153.271 792.223,153.651 793.514,154.033 
						794.798,154.405 796.081,154.775 797.373,155.141 798.656,155.502 799.94,155.855 801.232,156.209 802.517,156.559 
						803.8,156.902 805.092,157.241 806.375,157.574 807.657,157.905 808.945,158.231 810.233,158.552 811.517,158.871 
						812.805,159.181 814.093,159.494 815.376,159.796 816.664,160.097 817.951,160.392 819.235,160.685 820.523,160.973 
						821.812,161.254 823.096,161.536 824.383,161.81 825.666,162.083 826.954,162.353 828.242,162.613 829.525,162.875 
						830.813,163.133 832.102,163.385 833.385,163.634 834.673,163.879 835.96,164.12 837.244,164.355 838.532,164.591 
						839.82,164.819 841.104,165.048 842.391,165.271 843.678,165.488 844.961,165.707 846.246,165.917 847.537,166.126 
						848.821,166.332 850.104,166.536 851.396,166.734 852.681,166.929 853.965,167.121 855.257,167.306 856.54,167.494 
						857.823,167.672 859.115,167.848 860.399,168.023 861.684,168.194 862.97,168.359 864.259,168.522 865.542,168.678 
						866.83,168.832 868.118,168.985 869.405,169.131 870.688,169.274 871.977,169.413 873.266,169.55 874.547,169.677 
						875.836,169.806 877.122,169.927 878.406,170.047 879.693,170.159 880.982,170.27 882.265,170.375 883.549,170.475 
						884.842,170.569 886.125,170.66 887.408,170.746 888.7,170.831 889.984,170.909 891.269,170.978 892.561,171.05 
						893.844,171.112 895.127,171.169 896.419,171.223 897.703,171.268 898.987,171.316 900.273,171.353 901.563,171.386 
						902.846,171.416 904.134,171.437 905.421,171.457 906.705,171.468 907.992,171.477 909.279,171.477 910.564,171.477 
						911.852,171.468 913.139,171.457 914.423,171.437 915.711,171.416 916.998,171.386 918.282,171.353 919.57,171.316 
						920.854,171.268 922.142,171.223 923.429,171.169 924.713,171.112 926,171.05 927.289,170.978 928.572,170.909 929.86,170.831 
						931.148,170.746 932.432,170.66 933.718,170.569 935.008,170.475 936.289,170.375 937.575,170.27 938.867,170.159 
						940.15,170.047 941.434,169.927 942.725,169.806 944.008,169.677 945.292,169.55 946.584,169.413 947.867,169.274 
						949.15,169.131 950.442,168.985 951.727,168.832 953.011,168.678 954.302,168.522 955.585,168.359 956.869,168.194 
						958.157,168.023 959.445,167.848 960.729,167.672 962.017,167.494 963.304,167.306 964.588,167.121 965.877,166.929 
						967.164,166.734 968.448,166.536 969.736,166.332 971.023,166.126 972.306,165.917 973.595,165.707 974.879,165.488 
						976.166,165.271 977.454,165.048 978.738,164.819 980.025,164.591 981.313,164.355 982.596,164.12 983.884,163.879 
						985.172,163.634 986.455,163.385 987.743,163.133 989.03,162.875 990.314,162.613 991.605,162.353 992.89,162.083 
						994.174,161.81 995.463,161.536 996.749,161.254 998.032,160.973 999.321,160.685 1000.609,160.392 1001.891,160.097 
						1003.181,159.796 1004.469,159.494 1005.752,159.181 1007.04,158.871 1008.327,158.552 1009.611,158.231 1010.899,157.905 
						1012.182,157.574 1013.471,157.241 1014.757,156.902 1016.041,156.559 1017.328,156.209 1018.616,155.855 1019.899,155.502 
						1021.188,155.141 1022.475,154.775 1023.759,154.405 1025.047,154.033 1026.334,153.651 1027.618,153.271 1028.906,152.886 
						1030.192,152.494 1031.478,152.102 1032.761,151.709 1034.053,151.306 1035.336,150.899 1036.62,150.492 1037.913,150.083 
						1039.197,149.669 1040.48,149.25 1041.772,148.832 1043.056,148.408 1044.34,147.985 1045.632,147.558 1046.914,147.13 
						1048.198,146.7 1049.485,146.271 1050.773,145.836 1052.058,145.403 1053.345,144.968 1054.633,144.533 1055.916,144.098 
						1057.204,143.663 1058.492,143.226 1059.775,142.791 1061.063,142.355 1062.351,141.925 1063.635,141.496 1064.922,141.067 
						1066.21,140.641 1067.493,140.218 1068.781,139.793 1070.066,139.375 1071.353,138.965 1072.642,138.555 1073.924,138.149 
						1075.213,137.748 1076.501,137.353 1077.784,136.959 1079.071,136.576 1080.359,136.197 1081.643,135.829 1082.93,135.458 
						1084.218,135.101 1085.502,134.75 1086.785,134.41 1088.077,134.074 1089.36,133.75 1090.645,133.432 1091.937,133.124 
						1093.22,132.827 1094.504,132.537 1095.795,132.258 1097.079,131.994 1098.363,131.735 1099.654,131.492 1100.938,131.255 
						1102.222,131.032 1103.514,130.819 1104.799,130.622 1106.081,130.437 1107.37,130.261 1108.656,130.099 1109.941,129.95 
						1111.229,129.813 1112.517,129.693 1113.805,129.582 1115.088,129.486 1116.375,129.401 1117.662,129.332 1118.946,129.279 
						1120.234,129.236 1121.521,129.208 1122.806,129.195 1124.09,129.195 1125.381,129.208 1126.665,129.236 1127.948,129.279 
						1129.24,129.332 1130.524,129.401 1131.81,129.486 1133.101,129.582 1134.385,129.693 1135.666,129.813 1136.96,129.95 
						1138.242,130.099 1139.526,130.261 1140.817,130.437 1142.103,130.622 1143.387,130.819 1144.672,131.032 1145.962,131.255 
						1147.246,131.492 1148.533,131.735 1149.82,131.994 1151.104,132.258 1152.391,132.537 1153.679,132.827 1154.963,133.124 
						1156.25,133.432 1157.538,133.75 1158.822,134.074 1160.108,134.41 1161.394,134.75 1162.682,135.101 1163.969,135.458 
						1165.252,135.829 1166.539,136.197 1167.827,136.576 1169.113,136.959 1170.399,137.353 1171.688,137.748 1172.971,138.149 
						1174.258,138.555 1175.546,138.965 1176.83,139.375 1178.117,139.793 1179.406,140.218 1180.688,140.641 1181.975,141.067 
						1183.264,141.496 1184.549,141.925 1185.832,142.355 1187.125,142.791 1188.407,143.226 1189.691,143.663 1190.982,144.098 
						1192.267,144.533 1193.55,144.968 1194.842,145.403 1196.125,145.836 1197.41,146.271 1198.696,146.7 1199.985,147.13 
						1201.269,147.558 1202.556,147.985 1203.844,148.408 1205.128,148.832 1206.415,149.25 1207.703,149.669 1208.986,150.083 
						1210.274,150.492 1211.563,150.899 1212.848,151.306 1214.134,151.709 1215.423,152.102 1216.706,152.494 1217.992,152.886 
						1219.275,153.271 1220.564,153.651 1221.853,154.033 1223.136,154.405 1224.424,154.775 1225.711,155.141 1226.995,155.502 
						1228.283,155.855 1229.57,156.209 1230.854,156.559 1232.142,156.902 1233.429,157.241 1234.713,157.574 1235.997,157.905 
						1237.289,158.231 1238.572,158.552 1239.856,158.871 1241.147,159.181 1242.432,159.494 1243.715,159.796 1245.007,160.097 
						1246.29,160.392 1247.578,160.685 1248.867,160.973 1250.151,161.254 1251.438,161.536 1252.725,161.81 1254.012,162.083 
						1255.295,162.353 1256.581,162.613 1257.868,162.875 1259.155,163.133 1260.438,163.385 1261.728,163.634 1263.015,163.879 
						1264.299,164.12 1265.587,164.355 1266.874,164.591 1268.157,164.819 1269.448,165.048 1270.733,165.271 1272.018,165.488 
						1273.301,165.707 1274.592,165.917 1275.875,166.126 1277.159,166.332 1278.451,166.536 1279.735,166.734 1281.019,166.929 
						1282.311,167.121 1283.594,167.306 1284.878,167.494 1286.171,167.672 1287.455,167.848 1288.736,168.023 1290.027,168.194 
						1291.311,168.359 1292.598,168.522 1293.885,168.678 1295.172,168.832 1296.455,168.985 1297.741,169.131 1299.031,169.274 
						1300.315,169.413 1301.604,169.55 1302.891,169.677 1304.174,169.806 1305.461,169.927 1306.749,170.047 1308.035,170.159 
						1309.32,170.27 1310.604,170.375 1311.892,170.475 1313.179,170.569 1314.463,170.66 1315.752,170.746 1317.039,170.831 
						1318.322,170.909 1319.61,170.978 1320.9,171.05 1322.182,171.112 1323.471,171.169 1324.758,171.223 1326.04,171.268 
						1327.327,171.316 1328.616,171.353 1329.898,171.386 1331.186,171.416 1332.476,171.437 1333.759,171.457 1335.043,171.468 
						1336.335,171.477 1337.619,171.477 1337.619,281.907 52.598,281.907 52.598,171.477 					"/>
					<g id="g3033_1_">
					</g>
				</g>
			</g>
		</g>
	</g>
	<g id="g3022_4_" transform="translate(-51.9375,-123.21875)" display="inline">
		<g id="g3027_4_">
			<g>
				<defs>
					<rect id="SVGID_5_" x="47.563" y="-172.914" width="1285.023" height="1013.507"/>
				</defs>
				<clipPath id="SVGID_6_">
					<use xlink:href="#SVGID_5_"  overflow="visible"/>
				</clipPath>
				<g id="g3029_4_" clip-path="url(#SVGID_6_)">
					<polyline id="polyline3031_4_" fill="#50C3EF" points="51.973,171.602 53.259,171.602 54.546,171.593 55.832,171.582 
						57.118,171.562 58.405,171.541 59.691,171.511 60.977,171.478 62.261,171.441 63.55,171.393 64.836,171.348 66.121,171.294 
						67.41,171.237 68.695,171.175 69.98,171.103 71.269,171.034 72.554,170.956 73.839,170.871 75.127,170.785 76.413,170.694 
						77.698,170.6 78.987,170.5 80.272,170.395 81.557,170.284 82.841,170.172 84.132,170.052 85.417,169.931 86.7,169.802 
						87.991,169.675 89.277,169.538 90.561,169.399 91.85,169.256 93.136,169.11 94.419,168.957 95.71,168.803 96.995,168.647 
						98.279,168.484 99.564,168.319 100.854,168.148 102.138,167.973 103.423,167.797 104.713,167.619 105.997,167.431 
						107.283,167.246 108.572,167.054 109.856,166.859 111.141,166.661 112.432,166.457 113.715,166.251 115,166.042 
						116.291,165.832 117.575,165.613 118.86,165.396 120.146,165.173 121.434,164.944 122.719,164.716 124.006,164.48 
						125.294,164.245 126.579,164.004 127.864,163.759 129.154,163.51 130.437,163.258 131.723,163 133.013,162.738 
						134.297,162.478 135.583,162.208 136.869,161.935 138.156,161.661 139.441,161.379 140.728,161.098 142.016,160.81 
						143.301,160.517 144.587,160.222 145.874,159.921 147.159,159.619 148.445,159.306 149.734,158.996 151.019,158.677 
						152.305,158.356 153.593,158.03 154.877,157.699 156.164,157.366 157.448,157.027 158.737,156.684 160.024,156.334 
						161.307,155.98 162.596,155.627 163.883,155.266 165.166,154.9 166.455,154.53 167.742,154.158 169.024,153.776 
						170.314,153.396 171.601,153.011 172.885,152.619 174.171,152.227 175.46,151.834 176.744,151.431 178.029,151.024 
						179.318,150.617 180.603,150.208 181.889,149.794 183.178,149.375 184.461,148.957 185.747,148.533 187.038,148.11 
						188.321,147.683 189.607,147.255 190.896,146.825 192.183,146.396 193.466,145.961 194.751,145.528 196.041,145.093 
						197.325,144.658 198.611,144.223 199.9,143.788 201.183,143.351 202.47,142.916 203.761,142.48 205.042,142.05 206.33,141.621 
						207.618,141.192 208.901,140.766 210.188,140.343 211.473,139.918 212.762,139.5 214.047,139.09 215.333,138.68 
						216.622,138.274 217.906,137.873 219.191,137.478 220.48,137.084 221.766,136.701 223.051,136.322 224.34,135.954 
						225.625,135.583 226.91,135.226 228.199,134.875 229.484,134.535 230.769,134.199 232.053,133.875 233.344,133.557 
						234.629,133.249 235.913,132.952 237.202,132.662 238.487,132.383 239.771,132.119 241.062,131.86 242.348,131.617 
						243.632,131.38 244.92,131.157 246.207,130.944 247.49,130.747 248.775,130.562 250.066,130.386 251.35,130.224 
						252.635,130.075 253.925,129.938 255.21,129.818 256.494,129.707 257.785,129.611 259.07,129.526 260.354,129.457 
						261.644,129.404 262.929,129.361 264.213,129.333 265.503,129.32 266.788,129.32 268.071,129.333 269.356,129.361 
						270.646,129.404 271.931,129.457 273.217,129.526 274.506,129.611 275.79,129.707 277.076,129.818 278.365,129.938 
						279.649,130.075 280.936,130.224 282.225,130.386 283.508,130.562 284.794,130.747 286.08,130.944 287.368,131.157 
						288.654,131.38 289.939,131.617 291.227,131.86 292.513,132.119 293.798,132.383 295.086,132.662 296.372,132.952 
						297.657,133.249 298.945,133.557 300.23,133.875 301.516,134.199 302.804,134.535 304.09,134.875 305.375,135.226 
						306.659,135.583 307.949,135.954 309.234,136.322 310.518,136.701 311.809,137.084 313.093,137.478 314.377,137.873 
						315.667,138.274 316.952,138.68 318.239,139.09 319.526,139.5 320.812,139.918 322.099,140.343 323.382,140.766 
						324.671,141.192 325.958,141.621 327.241,142.05 328.531,142.48 329.817,142.916 331.1,143.351 332.39,143.788 
						333.676,144.223 334.959,144.658 336.249,145.093 337.534,145.528 338.818,145.961 340.108,146.396 341.394,146.825 
						342.677,147.255 343.963,147.683 345.253,148.11 346.536,148.533 347.822,148.957 349.112,149.375 350.396,149.794 
						351.682,150.208 352.971,150.617 354.254,151.024 355.541,151.431 356.83,151.834 358.114,152.227 359.4,152.619 
						360.686,153.011 361.974,153.396 363.259,153.776 364.544,154.158 365.833,154.53 367.118,154.9 368.404,155.266 
						369.692,155.627 370.977,155.98 372.263,156.334 373.551,156.684 374.836,157.027 376.122,157.366 377.411,157.699 
						378.695,158.03 379.982,158.356 381.266,158.677 382.554,158.996 383.841,159.306 385.126,159.619 386.414,159.921 
						387.701,160.222 388.985,160.517 390.272,160.81 391.559,161.098 392.844,161.379 394.132,161.661 395.419,161.935 
						396.704,162.208 397.987,162.478 399.277,162.738 400.563,163 401.846,163.258 403.136,163.51 404.422,163.759 
						405.706,164.004 406.995,164.245 408.281,164.48 409.566,164.716 410.854,164.944 412.14,165.173 413.424,165.396 
						414.713,165.613 415.999,165.832 417.284,166.042 418.569,166.251 419.858,166.457 421.142,166.661 422.428,166.859 
						423.717,167.054 425.002,167.246 426.288,167.431 427.577,167.619 428.86,167.797 430.146,167.973 431.436,168.148 
						432.719,168.319 434.006,168.484 435.291,168.647 436.578,168.803 437.865,168.957 439.149,169.11 440.438,169.256 
						441.724,169.399 443.009,169.538 444.299,169.675 445.583,169.802 446.868,169.931 448.159,170.052 449.443,170.172 
						450.728,170.284 452.018,170.395 453.302,170.5 454.586,170.6 455.873,170.694 457.161,170.785 458.446,170.871 
						459.732,170.956 461.02,171.034 462.305,171.103 463.59,171.175 464.878,171.237 466.164,171.294 467.45,171.348 
						468.738,171.393 470.023,171.441 471.309,171.478 472.593,171.511 473.883,171.541 475.168,171.562 476.452,171.582 
						477.743,171.593 479.028,171.602 480.312,171.602 481.602,171.602 482.887,171.593 484.17,171.582 485.461,171.562 
						486.747,171.541 488.03,171.511 489.32,171.478 490.605,171.441 491.889,171.393 493.173,171.348 494.464,171.294 
						495.748,171.237 497.033,171.175 498.323,171.103 499.607,171.034 500.892,170.956 502.183,170.871 503.466,170.785 
						504.751,170.694 506.042,170.6 507.327,170.5 508.61,170.395 509.897,170.284 511.187,170.172 512.471,170.052 
						513.756,169.931 515.046,169.802 516.33,169.675 517.615,169.538 518.906,169.399 520.189,169.256 521.475,169.11 
						522.764,168.957 524.048,168.803 525.334,168.647 526.624,168.484 527.907,168.319 529.192,168.148 530.479,167.973 
						531.767,167.797 533.052,167.619 534.339,167.431 535.625,167.246 536.911,167.054 538.198,166.859 539.485,166.661 
						540.77,166.457 542.057,166.251 543.344,166.042 544.628,165.832 545.916,165.613 547.199,165.396 548.488,165.173 
						549.775,164.944 551.059,164.716 552.347,164.48 553.634,164.245 554.917,164.004 556.208,163.759 557.493,163.51 
						558.776,163.258 560.066,163 561.352,162.738 562.636,162.478 563.925,162.208 565.211,161.935 566.495,161.661 
						567.78,161.379 569.069,161.098 570.354,160.81 571.64,160.517 572.929,160.222 574.213,159.921 575.498,159.619 
						576.788,159.306 578.074,158.996 579.358,158.677 580.647,158.356 581.934,158.03 583.217,157.699 584.503,157.366 
						585.792,157.027 587.077,156.684 588.362,156.334 589.652,155.98 590.936,155.627 592.221,155.266 593.511,154.9 
						594.795,154.53 596.081,154.158 597.37,153.776 598.653,153.396 599.939,153.011 601.229,152.619 602.513,152.227 
						603.799,151.834 605.084,151.431 606.372,151.024 607.657,150.617 608.942,150.208 610.23,149.794 611.517,149.375 
						612.803,148.957 614.09,148.533 615.376,148.11 616.662,147.683 617.949,147.255 619.235,146.825 620.521,146.396 
						621.805,145.961 623.094,145.528 624.38,145.093 625.664,144.658 626.954,144.223 628.239,143.788 629.522,143.351 
						630.813,142.916 632.099,142.48 633.382,142.05 634.672,141.621 635.958,141.192 637.241,140.766 638.531,140.343 
						639.817,139.918 641.103,139.5 642.386,139.09 643.676,138.68 644.961,138.274 646.245,137.873 647.535,137.478 
						648.821,137.084 650.104,136.701 651.394,136.322 652.68,135.954 653.964,135.583 655.253,135.226 656.54,134.875 
						657.823,134.535 659.108,134.199 660.398,133.875 661.683,133.557 662.967,133.249 664.258,132.952 665.542,132.662 
						666.826,132.383 668.116,132.119 669.4,131.86 670.687,131.617 671.976,131.38 673.257,131.157 674.547,130.944 
						675.835,130.747 677.118,130.562 678.405,130.386 679.689,130.224 680.976,130.075 682.264,129.938 683.547,129.818 
						684.836,129.707 686.124,129.611 687.407,129.526 688.696,129.457 689.982,129.404 691.266,129.361 692.555,129.333 
						693.843,129.32 695.126,129.32 696.409,129.333 697.702,129.361 698.984,129.404 700.269,129.457 701.562,129.526 
						702.844,129.611 704.127,129.707 705.419,129.818 706.703,129.938 707.987,130.075 709.278,130.224 710.563,130.386 
						711.846,130.562 713.134,130.747 714.422,130.944 715.706,131.157 716.992,131.38 718.281,131.617 719.564,131.86 
						720.853,132.119 722.141,132.383 723.424,132.662 724.712,132.952 725.999,133.249 727.283,133.557 728.571,133.875 
						729.859,134.199 731.143,134.535 732.431,134.875 733.715,135.226 735.002,135.583 736.29,135.954 737.572,136.322 
						738.859,136.701 740.148,137.084 741.432,137.478 742.724,137.873 744.007,138.274 745.291,138.68 746.582,139.09 
						747.866,139.5 749.149,139.918 750.438,140.343 751.725,140.766 753.01,141.192 754.296,141.621 755.585,142.05 
						756.868,142.48 758.156,142.916 759.443,143.351 760.728,143.788 762.015,144.223 763.303,144.658 764.587,145.093 
						765.875,145.528 767.163,145.961 768.446,146.396 769.734,146.825 771.018,147.255 772.305,147.683 773.593,148.11 
						774.876,148.533 776.164,148.957 777.451,149.375 778.735,149.794 780.022,150.208 781.311,150.617 782.595,151.024 
						783.882,151.431 785.17,151.834 786.454,152.227 787.737,152.619 789.029,153.011 790.313,153.396 791.598,153.776 
						792.889,154.158 794.173,154.53 795.456,154.9 796.748,155.266 798.031,155.627 799.315,155.98 800.607,156.334 
						801.892,156.684 803.175,157.027 804.467,157.366 805.75,157.699 807.032,158.03 808.32,158.356 809.608,158.677 
						810.892,158.996 812.18,159.306 813.468,159.619 814.751,159.921 816.039,160.222 817.326,160.517 818.61,160.81 
						819.898,161.098 821.187,161.379 822.471,161.661 823.758,161.935 825.041,162.208 826.329,162.478 827.617,162.738 828.9,163 
						830.188,163.258 831.477,163.51 832.76,163.759 834.048,164.004 835.335,164.245 836.619,164.48 837.907,164.716 
						839.195,164.944 840.479,165.173 841.766,165.396 843.053,165.613 844.336,165.832 845.621,166.042 846.912,166.251 
						848.196,166.457 849.479,166.661 850.771,166.859 852.056,167.054 853.34,167.246 854.632,167.431 855.915,167.619 
						857.198,167.797 858.49,167.973 859.774,168.148 861.059,168.319 862.345,168.484 863.634,168.647 864.917,168.803 
						866.205,168.957 867.493,169.11 868.78,169.256 870.063,169.399 871.352,169.538 872.641,169.675 873.922,169.802 
						875.211,169.931 876.497,170.052 877.781,170.172 879.068,170.284 880.357,170.395 881.64,170.5 882.924,170.6 
						884.217,170.694 885.5,170.785 886.783,170.871 888.075,170.956 889.359,171.034 890.644,171.103 891.936,171.175 
						893.219,171.237 894.502,171.294 895.794,171.348 897.078,171.393 898.362,171.441 899.648,171.478 900.938,171.511 
						902.221,171.541 903.509,171.562 904.796,171.582 906.08,171.593 907.367,171.602 908.654,171.602 909.939,171.602 
						911.227,171.593 912.514,171.582 913.798,171.562 915.086,171.541 916.373,171.511 917.657,171.478 918.945,171.441 
						920.229,171.393 921.517,171.348 922.804,171.294 924.088,171.237 925.375,171.175 926.664,171.103 927.947,171.034 
						929.235,170.956 930.523,170.871 931.807,170.785 933.093,170.694 934.383,170.6 935.664,170.5 936.95,170.395 
						938.242,170.284 939.525,170.172 940.809,170.052 942.1,169.931 943.383,169.802 944.667,169.675 945.959,169.538 
						947.242,169.399 948.525,169.256 949.817,169.11 951.102,168.957 952.386,168.803 953.677,168.647 954.96,168.484 
						956.244,168.319 957.532,168.148 958.82,167.973 960.104,167.797 961.392,167.619 962.679,167.431 963.963,167.246 
						965.252,167.054 966.539,166.859 967.823,166.661 969.111,166.457 970.398,166.251 971.681,166.042 972.97,165.832 
						974.254,165.613 975.541,165.396 976.829,165.173 978.113,164.944 979.4,164.716 980.688,164.48 981.971,164.245 
						983.259,164.004 984.547,163.759 985.83,163.51 987.118,163.258 988.405,163 989.689,162.738 990.98,162.478 992.265,162.208 
						993.549,161.935 994.838,161.661 996.124,161.379 997.407,161.098 998.696,160.81 999.984,160.517 1001.266,160.222 
						1002.556,159.921 1003.844,159.619 1005.127,159.306 1006.415,158.996 1007.702,158.677 1008.986,158.356 1010.274,158.03 
						1011.557,157.699 1012.846,157.366 1014.132,157.027 1015.416,156.684 1016.703,156.334 1017.991,155.98 1019.274,155.627 
						1020.563,155.266 1021.85,154.9 1023.134,154.53 1024.422,154.158 1025.709,153.776 1026.993,153.396 1028.281,153.011 
						1029.567,152.619 1030.853,152.227 1032.136,151.834 1033.428,151.431 1034.711,151.024 1035.995,150.617 1037.288,150.208 
						1038.572,149.794 1039.855,149.375 1041.147,148.957 1042.431,148.533 1043.715,148.11 1045.007,147.683 1046.289,147.255 
						1047.573,146.825 1048.86,146.396 1050.148,145.961 1051.433,145.528 1052.72,145.093 1054.008,144.658 1055.291,144.223 
						1056.579,143.788 1057.867,143.351 1059.15,142.916 1060.438,142.48 1061.726,142.05 1063.01,141.621 1064.297,141.192 
						1065.585,140.766 1066.868,140.343 1068.156,139.918 1069.441,139.5 1070.728,139.09 1072.017,138.68 1073.299,138.274 
						1074.588,137.873 1075.876,137.478 1077.159,137.084 1078.446,136.701 1079.734,136.322 1081.018,135.954 1082.305,135.583 
						1083.593,135.226 1084.877,134.875 1086.16,134.535 1087.452,134.199 1088.735,133.875 1090.02,133.557 1091.312,133.249 
						1092.595,132.952 1093.879,132.662 1095.17,132.383 1096.454,132.119 1097.738,131.86 1099.029,131.617 1100.313,131.38 
						1101.597,131.157 1102.889,130.944 1104.174,130.747 1105.456,130.562 1106.745,130.386 1108.031,130.224 1109.316,130.075 
						1110.604,129.938 1111.892,129.818 1113.18,129.707 1114.463,129.611 1115.75,129.526 1117.037,129.457 1118.321,129.404 
						1119.609,129.361 1120.896,129.333 1122.181,129.32 1123.465,129.32 1124.756,129.333 1126.04,129.361 1127.323,129.404 
						1128.615,129.457 1129.899,129.526 1131.185,129.611 1132.476,129.707 1133.76,129.818 1135.041,129.938 1136.335,130.075 
						1137.617,130.224 1138.901,130.386 1140.192,130.562 1141.478,130.747 1142.762,130.944 1144.047,131.157 1145.337,131.38 
						1146.621,131.617 1147.908,131.86 1149.195,132.119 1150.479,132.383 1151.766,132.662 1153.054,132.952 1154.338,133.249 
						1155.625,133.557 1156.913,133.875 1158.197,134.199 1159.483,134.535 1160.769,134.875 1162.057,135.226 1163.344,135.583 
						1164.627,135.954 1165.914,136.322 1167.202,136.701 1168.488,137.084 1169.774,137.478 1171.063,137.873 1172.346,138.274 
						1173.633,138.68 1174.921,139.09 1176.205,139.5 1177.492,139.918 1178.781,140.343 1180.063,140.766 1181.35,141.192 
						1182.639,141.621 1183.924,142.05 1185.207,142.48 1186.5,142.916 1187.782,143.351 1189.066,143.788 1190.357,144.223 
						1191.642,144.658 1192.925,145.093 1194.217,145.528 1195.5,145.961 1196.785,146.396 1198.071,146.825 1199.36,147.255 
						1200.644,147.683 1201.931,148.11 1203.219,148.533 1204.503,148.957 1205.79,149.375 1207.078,149.794 1208.361,150.208 
						1209.649,150.617 1210.938,151.024 1212.223,151.431 1213.509,151.834 1214.798,152.227 1216.081,152.619 1217.367,153.011 
						1218.65,153.396 1219.939,153.776 1221.228,154.158 1222.511,154.53 1223.799,154.9 1225.086,155.266 1226.37,155.627 
						1227.658,155.98 1228.945,156.334 1230.229,156.684 1231.517,157.027 1232.804,157.366 1234.088,157.699 1235.372,158.03 
						1236.664,158.356 1237.947,158.677 1239.231,158.996 1240.522,159.306 1241.807,159.619 1243.09,159.921 1244.382,160.222 
						1245.665,160.517 1246.953,160.81 1248.242,161.098 1249.526,161.379 1250.813,161.661 1252.1,161.935 1253.387,162.208 
						1254.67,162.478 1255.956,162.738 1257.243,163 1258.53,163.258 1259.813,163.51 1261.103,163.759 1262.39,164.004 
						1263.674,164.245 1264.962,164.48 1266.249,164.716 1267.532,164.944 1268.823,165.173 1270.108,165.396 1271.393,165.613 
						1272.676,165.832 1273.967,166.042 1275.25,166.251 1276.534,166.457 1277.826,166.661 1279.11,166.859 1280.394,167.054 
						1281.686,167.246 1282.969,167.431 1284.253,167.619 1285.546,167.797 1286.83,167.973 1288.111,168.148 1289.402,168.319 
						1290.686,168.484 1291.973,168.647 1293.26,168.803 1294.547,168.957 1295.83,169.11 1297.116,169.256 1298.406,169.399 
						1299.69,169.538 1300.979,169.675 1302.266,169.802 1303.549,169.931 1304.836,170.052 1306.124,170.172 1307.41,170.284 
						1308.695,170.395 1309.979,170.5 1311.267,170.6 1312.554,170.694 1313.838,170.785 1315.127,170.871 1316.414,170.956 
						1317.697,171.034 1318.985,171.103 1320.275,171.175 1321.557,171.237 1322.846,171.294 1324.133,171.348 1325.415,171.393 
						1326.702,171.441 1327.991,171.478 1329.273,171.511 1330.561,171.541 1331.851,171.562 1333.134,171.582 1334.418,171.593 
						1335.71,171.602 1336.994,171.602 1336.994,282.032 51.973,282.032 51.973,171.602 					"/>
					<g id="g3033_4_">
					</g>
				</g>
			</g>
		</g>
	</g>
	<rect y="156" display="inline" fill="#50C3EF" width="1280" height="644"/>
</g>
<g id="hg2" display="none">
	<g id="g3022_2_" transform="translate(-51.9375,-123.21875)" display="inline">
		<g id="g3027_2_">
			<g>
				<defs>
					<rect id="SVGID_7_" x="46.938" y="5.711" width="1285.023" height="1013.507"/>
				</defs>
				<clipPath id="SVGID_8_">
					<use xlink:href="#SVGID_7_"  overflow="visible"/>
				</clipPath>
				<g id="g3029_2_" clip-path="url(#SVGID_8_)">
					<polyline id="polyline3031_2_" fill="#1A9AC7" points="51.348,350.227 52.634,350.227 53.921,350.218 55.207,350.207 
						56.493,350.187 57.78,350.166 59.066,350.136 60.352,350.103 61.636,350.066 62.925,350.018 64.211,349.973 65.496,349.919 
						66.785,349.862 68.07,349.8 69.355,349.728 70.644,349.659 71.929,349.581 73.214,349.496 74.502,349.41 75.788,349.319 
						77.073,349.225 78.362,349.125 79.647,349.02 80.932,348.909 82.216,348.797 83.507,348.677 84.792,348.556 86.075,348.427 
						87.366,348.3 88.652,348.163 89.936,348.024 91.225,347.881 92.511,347.735 93.794,347.582 95.085,347.428 96.37,347.272 
						97.654,347.109 98.939,346.944 100.229,346.773 101.513,346.598 102.798,346.422 104.088,346.244 105.372,346.056 
						106.658,345.871 107.947,345.679 109.231,345.484 110.516,345.286 111.807,345.082 113.09,344.876 114.375,344.667 
						115.666,344.457 116.95,344.238 118.235,344.021 119.521,343.798 120.809,343.569 122.094,343.341 123.381,343.105 
						124.669,342.87 125.954,342.629 127.239,342.384 128.529,342.135 129.812,341.883 131.098,341.625 132.388,341.363 
						133.672,341.103 134.958,340.833 136.244,340.56 137.531,340.286 138.816,340.004 140.103,339.723 141.391,339.435 
						142.676,339.142 143.962,338.847 145.249,338.546 146.534,338.244 147.82,337.931 149.109,337.621 150.394,337.302 
						151.68,336.981 152.968,336.655 154.252,336.324 155.539,335.991 156.823,335.652 158.112,335.309 159.399,334.959 
						160.682,334.605 161.971,334.252 163.258,333.891 164.541,333.525 165.83,333.155 167.117,332.783 168.399,332.401 
						169.689,332.021 170.976,331.636 172.26,331.244 173.546,330.852 174.835,330.459 176.119,330.056 177.404,329.649 
						178.693,329.242 179.978,328.833 181.264,328.419 182.553,328 183.836,327.582 185.122,327.158 186.413,326.735 
						187.696,326.308 188.982,325.88 190.271,325.45 191.558,325.021 192.841,324.586 194.126,324.153 195.416,323.718 
						196.7,323.283 197.986,322.848 199.275,322.413 200.558,321.976 201.845,321.541 203.136,321.105 204.417,320.675 
						205.705,320.246 206.993,319.817 208.276,319.391 209.563,318.968 210.848,318.543 212.137,318.125 213.422,317.715 
						214.708,317.305 215.997,316.899 217.281,316.498 218.566,316.103 219.855,315.709 221.141,315.326 222.426,314.947 
						223.715,314.579 225,314.208 226.285,313.851 227.574,313.5 228.859,313.16 230.144,312.824 231.428,312.5 232.719,312.182 
						234.004,311.874 235.288,311.577 236.577,311.287 237.862,311.008 239.146,310.744 240.437,310.485 241.723,310.242 
						243.007,310.005 244.295,309.782 245.582,309.569 246.865,309.372 248.15,309.187 249.441,309.011 250.725,308.849 
						252.01,308.7 253.3,308.563 254.585,308.443 255.869,308.332 257.16,308.236 258.445,308.151 259.729,308.082 261.019,308.029 
						262.304,307.986 263.588,307.958 264.878,307.945 266.163,307.945 267.446,307.958 268.731,307.986 270.021,308.029 
						271.306,308.082 272.592,308.151 273.881,308.236 275.165,308.332 276.451,308.443 277.74,308.563 279.024,308.7 
						280.311,308.849 281.6,309.011 282.883,309.187 284.169,309.372 285.455,309.569 286.743,309.782 288.029,310.005 
						289.314,310.242 290.602,310.485 291.888,310.744 293.173,311.008 294.461,311.287 295.747,311.577 297.032,311.874 
						298.32,312.182 299.605,312.5 300.891,312.824 302.179,313.16 303.465,313.5 304.75,313.851 306.034,314.208 307.324,314.579 
						308.609,314.947 309.893,315.326 311.184,315.709 312.468,316.103 313.752,316.498 315.042,316.899 316.327,317.305 
						317.614,317.715 318.901,318.125 320.187,318.543 321.474,318.968 322.757,319.391 324.046,319.817 325.333,320.246 
						326.616,320.675 327.906,321.105 329.192,321.541 330.475,321.976 331.765,322.413 333.051,322.848 334.334,323.283 
						335.624,323.718 336.909,324.153 338.193,324.586 339.483,325.021 340.769,325.45 342.052,325.88 343.338,326.308 
						344.628,326.735 345.911,327.158 347.197,327.582 348.487,328 349.771,328.419 351.057,328.833 352.346,329.242 
						353.629,329.649 354.916,330.056 356.205,330.459 357.489,330.852 358.775,331.244 360.061,331.636 361.349,332.021 
						362.634,332.401 363.919,332.783 365.208,333.155 366.493,333.525 367.779,333.891 369.067,334.252 370.352,334.605 
						371.638,334.959 372.926,335.309 374.211,335.652 375.497,335.991 376.786,336.324 378.07,336.655 379.357,336.981 
						380.641,337.302 381.929,337.621 383.216,337.931 384.501,338.244 385.789,338.546 387.076,338.847 388.36,339.142 
						389.647,339.435 390.934,339.723 392.219,340.004 393.507,340.286 394.794,340.56 396.079,340.833 397.362,341.103 
						398.652,341.363 399.938,341.625 401.221,341.883 402.511,342.135 403.797,342.384 405.081,342.629 406.37,342.87 
						407.656,343.105 408.941,343.341 410.229,343.569 411.515,343.798 412.799,344.021 414.088,344.238 415.374,344.457 
						416.659,344.667 417.944,344.876 419.233,345.082 420.517,345.286 421.803,345.484 423.092,345.679 424.377,345.871 
						425.663,346.056 426.952,346.244 428.235,346.422 429.521,346.598 430.811,346.773 432.094,346.944 433.381,347.109 
						434.666,347.272 435.953,347.428 437.24,347.582 438.524,347.735 439.813,347.881 441.099,348.024 442.384,348.163 
						443.674,348.3 444.958,348.427 446.243,348.556 447.534,348.677 448.818,348.797 450.103,348.909 451.393,349.02 
						452.677,349.125 453.961,349.225 455.248,349.319 456.536,349.41 457.821,349.496 459.107,349.581 460.395,349.659 
						461.68,349.728 462.965,349.8 464.253,349.862 465.539,349.919 466.825,349.973 468.113,350.018 469.398,350.066 
						470.684,350.103 471.968,350.136 473.258,350.166 474.543,350.187 475.827,350.207 477.118,350.218 478.403,350.227 
						479.687,350.227 480.977,350.227 482.262,350.218 483.545,350.207 484.836,350.187 486.122,350.166 487.405,350.136 
						488.695,350.103 489.98,350.066 491.264,350.018 492.548,349.973 493.839,349.919 495.123,349.862 496.408,349.8 
						497.698,349.728 498.982,349.659 500.267,349.581 501.558,349.496 502.841,349.41 504.126,349.319 505.417,349.225 
						506.702,349.125 507.985,349.02 509.272,348.909 510.562,348.797 511.846,348.677 513.131,348.556 514.421,348.427 
						515.705,348.3 516.99,348.163 518.281,348.024 519.564,347.881 520.85,347.735 522.139,347.582 523.423,347.428 
						524.709,347.272 525.999,347.109 527.282,346.944 528.567,346.773 529.854,346.598 531.142,346.422 532.427,346.244 
						533.714,346.056 535,345.871 536.286,345.679 537.573,345.484 538.86,345.286 540.145,345.082 541.432,344.876 
						542.719,344.667 544.003,344.457 545.291,344.238 546.574,344.021 547.863,343.798 549.15,343.569 550.434,343.341 
						551.722,343.105 553.009,342.87 554.292,342.629 555.583,342.384 556.868,342.135 558.151,341.883 559.441,341.625 
						560.727,341.363 562.011,341.103 563.3,340.833 564.586,340.56 565.87,340.286 567.155,340.004 568.444,339.723 
						569.729,339.435 571.015,339.142 572.304,338.847 573.588,338.546 574.873,338.244 576.163,337.931 577.449,337.621 
						578.733,337.302 580.022,336.981 581.309,336.655 582.592,336.324 583.878,335.991 585.167,335.652 586.452,335.309 
						587.737,334.959 589.027,334.605 590.311,334.252 591.596,333.891 592.886,333.525 594.17,333.155 595.456,332.783 
						596.745,332.401 598.028,332.021 599.314,331.636 600.604,331.244 601.888,330.852 603.174,330.459 604.459,330.056 
						605.747,329.649 607.032,329.242 608.317,328.833 609.605,328.419 610.892,328 612.178,327.582 613.465,327.158 
						614.751,326.735 616.037,326.308 617.324,325.88 618.61,325.45 619.896,325.021 621.18,324.586 622.469,324.153 
						623.755,323.718 625.039,323.283 626.329,322.848 627.614,322.413 628.897,321.976 630.188,321.541 631.474,321.105 
						632.757,320.675 634.047,320.246 635.333,319.817 636.616,319.391 637.906,318.968 639.192,318.543 640.478,318.125 
						641.761,317.715 643.051,317.305 644.336,316.899 645.62,316.498 646.91,316.103 648.196,315.709 649.479,315.326 
						650.769,314.947 652.055,314.579 653.339,314.208 654.628,313.851 655.915,313.5 657.198,313.16 658.483,312.824 
						659.773,312.5 661.058,312.182 662.342,311.874 663.633,311.577 664.917,311.287 666.201,311.008 667.491,310.744 
						668.775,310.485 670.062,310.242 671.351,310.005 672.632,309.782 673.922,309.569 675.21,309.372 676.493,309.187 
						677.78,309.011 679.064,308.849 680.351,308.7 681.639,308.563 682.922,308.443 684.211,308.332 685.499,308.236 
						686.782,308.151 688.07,308.082 689.357,308.029 690.641,307.986 691.93,307.958 693.218,307.945 694.501,307.945 
						695.784,307.958 697.077,307.986 698.359,308.029 699.644,308.082 700.937,308.151 702.219,308.236 703.502,308.332 
						704.794,308.443 706.078,308.563 707.362,308.7 708.653,308.849 709.938,309.011 711.221,309.187 712.509,309.372 
						713.797,309.569 715.081,309.782 716.367,310.005 717.656,310.242 718.939,310.485 720.228,310.744 721.516,311.008 
						722.799,311.287 724.087,311.577 725.374,311.874 726.658,312.182 727.946,312.5 729.234,312.824 730.518,313.16 
						731.806,313.5 733.09,313.851 734.377,314.208 735.665,314.579 736.947,314.947 738.234,315.326 739.523,315.709 
						740.807,316.103 742.099,316.498 743.382,316.899 744.666,317.305 745.957,317.715 747.241,318.125 748.524,318.543 
						749.813,318.968 751.1,319.391 752.385,319.817 753.671,320.246 754.96,320.675 756.243,321.105 757.531,321.541 
						758.818,321.976 760.103,322.413 761.39,322.848 762.678,323.283 763.962,323.718 765.25,324.153 766.538,324.586 
						767.821,325.021 769.109,325.45 770.393,325.88 771.68,326.308 772.968,326.735 774.251,327.158 775.539,327.582 776.826,328 
						778.11,328.419 779.397,328.833 780.686,329.242 781.97,329.649 783.257,330.056 784.545,330.459 785.829,330.852 
						787.112,331.244 788.404,331.636 789.688,332.021 790.973,332.401 792.264,332.783 793.548,333.155 794.831,333.525 
						796.123,333.891 797.406,334.252 798.69,334.605 799.982,334.959 801.267,335.309 802.55,335.652 803.842,335.991 
						805.125,336.324 806.407,336.655 807.695,336.981 808.983,337.302 810.267,337.621 811.555,337.931 812.843,338.244 
						814.126,338.546 815.414,338.847 816.701,339.142 817.985,339.435 819.273,339.723 820.562,340.004 821.846,340.286 
						823.133,340.56 824.416,340.833 825.704,341.103 826.992,341.363 828.275,341.625 829.563,341.883 830.852,342.135 
						832.135,342.384 833.423,342.629 834.71,342.87 835.994,343.105 837.282,343.341 838.57,343.569 839.854,343.798 
						841.141,344.021 842.428,344.238 843.711,344.457 844.996,344.667 846.287,344.876 847.571,345.082 848.854,345.286 
						850.146,345.484 851.431,345.679 852.715,345.871 854.007,346.056 855.29,346.244 856.573,346.422 857.865,346.598 
						859.149,346.773 860.434,346.944 861.72,347.109 863.009,347.272 864.292,347.428 865.58,347.582 866.868,347.735 
						868.155,347.881 869.438,348.024 870.727,348.163 872.016,348.3 873.297,348.427 874.586,348.556 875.872,348.677 
						877.156,348.797 878.443,348.909 879.732,349.02 881.015,349.125 882.299,349.225 883.592,349.319 884.875,349.41 
						886.158,349.496 887.45,349.581 888.734,349.659 890.019,349.728 891.311,349.8 892.594,349.862 893.877,349.919 
						895.169,349.973 896.453,350.018 897.737,350.066 899.023,350.103 900.313,350.136 901.596,350.166 902.884,350.187 
						904.171,350.207 905.455,350.218 906.742,350.227 908.029,350.227 909.314,350.227 910.602,350.218 911.889,350.207 
						913.173,350.187 914.461,350.166 915.748,350.136 917.032,350.103 918.32,350.066 919.604,350.018 920.892,349.973 
						922.179,349.919 923.463,349.862 924.75,349.8 926.039,349.728 927.322,349.659 928.61,349.581 929.898,349.496 
						931.182,349.41 932.468,349.319 933.758,349.225 935.039,349.125 936.325,349.02 937.617,348.909 938.9,348.797 
						940.184,348.677 941.475,348.556 942.758,348.427 944.042,348.3 945.334,348.163 946.617,348.024 947.9,347.881 
						949.192,347.735 950.477,347.582 951.761,347.428 953.052,347.272 954.335,347.109 955.619,346.944 956.907,346.773 
						958.195,346.598 959.479,346.422 960.767,346.244 962.054,346.056 963.338,345.871 964.627,345.679 965.914,345.484 
						967.198,345.286 968.486,345.082 969.773,344.876 971.056,344.667 972.345,344.457 973.629,344.238 974.916,344.021 
						976.204,343.798 977.488,343.569 978.775,343.341 980.063,343.105 981.346,342.87 982.634,342.629 983.922,342.384 
						985.205,342.135 986.493,341.883 987.78,341.625 989.064,341.363 990.355,341.103 991.64,340.833 992.924,340.56 
						994.213,340.286 995.499,340.004 996.782,339.723 998.071,339.435 999.359,339.142 1000.641,338.847 1001.931,338.546 
						1003.219,338.244 1004.502,337.931 1005.79,337.621 1007.077,337.302 1008.361,336.981 1009.649,336.655 1010.932,336.324 
						1012.221,335.991 1013.507,335.652 1014.791,335.309 1016.078,334.959 1017.366,334.605 1018.649,334.252 1019.938,333.891 
						1021.225,333.525 1022.509,333.155 1023.797,332.783 1025.084,332.401 1026.368,332.021 1027.656,331.636 1028.942,331.244 
						1030.228,330.852 1031.511,330.459 1032.803,330.056 1034.086,329.649 1035.37,329.242 1036.663,328.833 1037.947,328.419 
						1039.23,328 1040.522,327.582 1041.806,327.158 1043.09,326.735 1044.382,326.308 1045.664,325.88 1046.948,325.45 
						1048.235,325.021 1049.523,324.586 1050.808,324.153 1052.095,323.718 1053.383,323.283 1054.666,322.848 1055.954,322.413 
						1057.242,321.976 1058.525,321.541 1059.813,321.105 1061.101,320.675 1062.385,320.246 1063.672,319.817 1064.96,319.391 
						1066.243,318.968 1067.531,318.543 1068.816,318.125 1070.103,317.715 1071.392,317.305 1072.674,316.899 1073.963,316.498 
						1075.251,316.103 1076.534,315.709 1077.821,315.326 1079.109,314.947 1080.393,314.579 1081.68,314.208 1082.968,313.851 
						1084.252,313.5 1085.535,313.16 1086.827,312.824 1088.11,312.5 1089.395,312.182 1090.687,311.874 1091.97,311.577 
						1093.254,311.287 1094.545,311.008 1095.829,310.744 1097.113,310.485 1098.404,310.242 1099.688,310.005 1100.972,309.782 
						1102.264,309.569 1103.549,309.372 1104.831,309.187 1106.12,309.011 1107.406,308.849 1108.691,308.7 1109.979,308.563 
						1111.267,308.443 1112.555,308.332 1113.838,308.236 1115.125,308.151 1116.412,308.082 1117.696,308.029 1118.984,307.986 
						1120.271,307.958 1121.556,307.945 1122.84,307.945 1124.131,307.958 1125.415,307.986 1126.698,308.029 1127.99,308.082 
						1129.274,308.151 1130.56,308.236 1131.851,308.332 1133.135,308.443 1134.416,308.563 1135.71,308.7 1136.992,308.849 
						1138.276,309.011 1139.567,309.187 1140.853,309.372 1142.137,309.569 1143.422,309.782 1144.712,310.005 1145.996,310.242 
						1147.283,310.485 1148.57,310.744 1149.854,311.008 1151.141,311.287 1152.429,311.577 1153.713,311.874 1155,312.182 
						1156.288,312.5 1157.572,312.824 1158.858,313.16 1160.144,313.5 1161.432,313.851 1162.719,314.208 1164.002,314.579 
						1165.289,314.947 1166.577,315.326 1167.863,315.709 1169.149,316.103 1170.438,316.498 1171.721,316.899 1173.008,317.305 
						1174.296,317.715 1175.58,318.125 1176.867,318.543 1178.156,318.968 1179.438,319.391 1180.725,319.817 1182.014,320.246 
						1183.299,320.675 1184.582,321.105 1185.875,321.541 1187.157,321.976 1188.441,322.413 1189.732,322.848 1191.017,323.283 
						1192.3,323.718 1193.592,324.153 1194.875,324.586 1196.16,325.021 1197.446,325.45 1198.735,325.88 1200.019,326.308 
						1201.306,326.735 1202.594,327.158 1203.878,327.582 1205.165,328 1206.453,328.419 1207.736,328.833 1209.024,329.242 
						1210.313,329.649 1211.598,330.056 1212.884,330.459 1214.173,330.852 1215.456,331.244 1216.742,331.636 1218.025,332.021 
						1219.314,332.401 1220.603,332.783 1221.886,333.155 1223.174,333.525 1224.461,333.891 1225.745,334.252 1227.033,334.605 
						1228.32,334.959 1229.604,335.309 1230.892,335.652 1232.179,335.991 1233.463,336.324 1234.747,336.655 1236.039,336.981 
						1237.322,337.302 1238.606,337.621 1239.897,337.931 1241.182,338.244 1242.465,338.546 1243.757,338.847 1245.04,339.142 
						1246.328,339.435 1247.617,339.723 1248.901,340.004 1250.188,340.286 1251.475,340.56 1252.762,340.833 1254.045,341.103 
						1255.331,341.363 1256.618,341.625 1257.905,341.883 1259.188,342.135 1260.478,342.384 1261.765,342.629 1263.049,342.87 
						1264.337,343.105 1265.624,343.341 1266.907,343.569 1268.198,343.798 1269.483,344.021 1270.768,344.238 1272.051,344.457 
						1273.342,344.667 1274.625,344.876 1275.909,345.082 1277.201,345.286 1278.485,345.484 1279.769,345.679 1281.061,345.871 
						1282.344,346.056 1283.628,346.244 1284.921,346.422 1286.205,346.598 1287.486,346.773 1288.777,346.944 1290.061,347.109 
						1291.348,347.272 1292.635,347.428 1293.922,347.582 1295.205,347.735 1296.491,347.881 1297.781,348.024 1299.065,348.163 
						1300.354,348.3 1301.641,348.427 1302.924,348.556 1304.211,348.677 1305.499,348.797 1306.785,348.909 1308.07,349.02 
						1309.354,349.125 1310.642,349.225 1311.929,349.319 1313.213,349.41 1314.502,349.496 1315.789,349.581 1317.072,349.659 
						1318.36,349.728 1319.65,349.8 1320.932,349.862 1322.221,349.919 1323.508,349.973 1324.79,350.018 1326.077,350.066 
						1327.366,350.103 1328.648,350.136 1329.936,350.166 1331.226,350.187 1332.509,350.207 1333.793,350.218 1335.085,350.227 
						1336.369,350.227 1336.369,460.657 51.348,460.657 51.348,350.227 					"/>
					<g id="g3033_2_">
					</g>
				</g>
			</g>
		</g>
	</g>
	<rect y="335" display="inline" fill="#1A9AC7" width="1280" height="465"/>
</g>
<g id="hg3">
	<g id="g3022_3_" transform="translate(-51.9375,-123.21875)">
		<g id="g3027_3_">
			<g>
				<defs>
					<rect id="SVGID_9_" x="46.938" y="5.711" width="1285.023" height="1013.507"/>
				</defs>
				<clipPath id="SVGID_10_">
					<use xlink:href="#SVGID_9_"  overflow="visible"/>
				</clipPath>
				<g id="g3029_3_" clip-path="url(#SVGID_10_)">
					<polyline id="polyline3031_3_" fill="#0479AE" points="51.348,350.227 52.634,350.227 53.921,350.218 55.207,350.207 
						56.493,350.187 57.78,350.166 59.066,350.136 60.352,350.103 61.636,350.066 62.925,350.018 64.211,349.973 65.496,349.919 
						66.785,349.862 68.07,349.8 69.355,349.728 70.644,349.659 71.929,349.581 73.214,349.496 74.502,349.41 75.788,349.319 
						77.073,349.225 78.362,349.125 79.647,349.02 80.932,348.909 82.216,348.797 83.507,348.677 84.792,348.556 86.075,348.427 
						87.366,348.3 88.652,348.163 89.936,348.024 91.225,347.881 92.511,347.735 93.794,347.582 95.085,347.428 96.37,347.272 
						97.654,347.109 98.939,346.944 100.229,346.773 101.513,346.598 102.798,346.422 104.088,346.244 105.372,346.056 
						106.658,345.871 107.947,345.679 109.231,345.484 110.516,345.286 111.807,345.082 113.09,344.876 114.375,344.667 
						115.666,344.457 116.95,344.238 118.235,344.021 119.521,343.798 120.809,343.569 122.094,343.341 123.381,343.105 
						124.669,342.87 125.954,342.629 127.239,342.384 128.529,342.135 129.812,341.883 131.098,341.625 132.388,341.363 
						133.672,341.103 134.958,340.833 136.244,340.56 137.531,340.286 138.816,340.004 140.103,339.723 141.391,339.435 
						142.676,339.142 143.962,338.847 145.249,338.546 146.534,338.244 147.82,337.931 149.109,337.621 150.394,337.302 
						151.68,336.981 152.968,336.655 154.252,336.324 155.539,335.991 156.823,335.652 158.112,335.309 159.399,334.959 
						160.682,334.605 161.971,334.252 163.258,333.891 164.541,333.525 165.83,333.155 167.117,332.783 168.399,332.401 
						169.689,332.021 170.976,331.636 172.26,331.244 173.546,330.852 174.835,330.459 176.119,330.056 177.404,329.649 
						178.693,329.242 179.978,328.833 181.264,328.419 182.553,328 183.836,327.582 185.122,327.158 186.413,326.735 
						187.696,326.308 188.982,325.88 190.271,325.45 191.558,325.021 192.841,324.586 194.126,324.153 195.416,323.718 
						196.7,323.283 197.986,322.848 199.275,322.413 200.558,321.976 201.845,321.541 203.136,321.105 204.417,320.675 
						205.705,320.246 206.993,319.817 208.276,319.391 209.563,318.968 210.848,318.543 212.137,318.125 213.422,317.715 
						214.708,317.305 215.997,316.899 217.281,316.498 218.566,316.103 219.855,315.709 221.141,315.326 222.426,314.947 
						223.715,314.579 225,314.208 226.285,313.851 227.574,313.5 228.859,313.16 230.144,312.824 231.428,312.5 232.719,312.182 
						234.004,311.874 235.288,311.577 236.577,311.287 237.862,311.008 239.146,310.744 240.437,310.485 241.723,310.242 
						243.007,310.005 244.295,309.782 245.582,309.569 246.865,309.372 248.15,309.187 249.441,309.011 250.725,308.849 
						252.01,308.7 253.3,308.563 254.585,308.443 255.869,308.332 257.16,308.236 258.445,308.151 259.729,308.082 261.019,308.029 
						262.304,307.986 263.588,307.958 264.878,307.945 266.163,307.945 267.446,307.958 268.731,307.986 270.021,308.029 
						271.306,308.082 272.592,308.151 273.881,308.236 275.165,308.332 276.451,308.443 277.74,308.563 279.024,308.7 
						280.311,308.849 281.6,309.011 282.883,309.187 284.169,309.372 285.455,309.569 286.743,309.782 288.029,310.005 
						289.314,310.242 290.602,310.485 291.888,310.744 293.173,311.008 294.461,311.287 295.747,311.577 297.032,311.874 
						298.32,312.182 299.605,312.5 300.891,312.824 302.179,313.16 303.465,313.5 304.75,313.851 306.034,314.208 307.324,314.579 
						308.609,314.947 309.893,315.326 311.184,315.709 312.468,316.103 313.752,316.498 315.042,316.899 316.327,317.305 
						317.614,317.715 318.901,318.125 320.187,318.543 321.474,318.968 322.757,319.391 324.046,319.817 325.333,320.246 
						326.616,320.675 327.906,321.105 329.192,321.541 330.475,321.976 331.765,322.413 333.051,322.848 334.334,323.283 
						335.624,323.718 336.909,324.153 338.193,324.586 339.483,325.021 340.769,325.45 342.052,325.88 343.338,326.308 
						344.628,326.735 345.911,327.158 347.197,327.582 348.487,328 349.771,328.419 351.057,328.833 352.346,329.242 
						353.629,329.649 354.916,330.056 356.205,330.459 357.489,330.852 358.775,331.244 360.061,331.636 361.349,332.021 
						362.634,332.401 363.919,332.783 365.208,333.155 366.493,333.525 367.779,333.891 369.067,334.252 370.352,334.605 
						371.638,334.959 372.926,335.309 374.211,335.652 375.497,335.991 376.786,336.324 378.07,336.655 379.357,336.981 
						380.641,337.302 381.929,337.621 383.216,337.931 384.501,338.244 385.789,338.546 387.076,338.847 388.36,339.142 
						389.647,339.435 390.934,339.723 392.219,340.004 393.507,340.286 394.794,340.56 396.079,340.833 397.362,341.103 
						398.652,341.363 399.938,341.625 401.221,341.883 402.511,342.135 403.797,342.384 405.081,342.629 406.37,342.87 
						407.656,343.105 408.941,343.341 410.229,343.569 411.515,343.798 412.799,344.021 414.088,344.238 415.374,344.457 
						416.659,344.667 417.944,344.876 419.233,345.082 420.517,345.286 421.803,345.484 423.092,345.679 424.377,345.871 
						425.663,346.056 426.952,346.244 428.235,346.422 429.521,346.598 430.811,346.773 432.094,346.944 433.381,347.109 
						434.666,347.272 435.953,347.428 437.24,347.582 438.524,347.735 439.813,347.881 441.099,348.024 442.384,348.163 
						443.674,348.3 444.958,348.427 446.243,348.556 447.534,348.677 448.818,348.797 450.103,348.909 451.393,349.02 
						452.677,349.125 453.961,349.225 455.248,349.319 456.536,349.41 457.821,349.496 459.107,349.581 460.395,349.659 
						461.68,349.728 462.965,349.8 464.253,349.862 465.539,349.919 466.825,349.973 468.113,350.018 469.398,350.066 
						470.684,350.103 471.968,350.136 473.258,350.166 474.543,350.187 475.827,350.207 477.118,350.218 478.403,350.227 
						479.687,350.227 480.977,350.227 482.262,350.218 483.545,350.207 484.836,350.187 486.122,350.166 487.405,350.136 
						488.695,350.103 489.98,350.066 491.264,350.018 492.548,349.973 493.839,349.919 495.123,349.862 496.408,349.8 
						497.698,349.728 498.982,349.659 500.267,349.581 501.558,349.496 502.841,349.41 504.126,349.319 505.417,349.225 
						506.702,349.125 507.985,349.02 509.272,348.909 510.562,348.797 511.846,348.677 513.131,348.556 514.421,348.427 
						515.705,348.3 516.99,348.163 518.281,348.024 519.564,347.881 520.85,347.735 522.139,347.582 523.423,347.428 
						524.709,347.272 525.999,347.109 527.282,346.944 528.567,346.773 529.854,346.598 531.142,346.422 532.427,346.244 
						533.714,346.056 535,345.871 536.286,345.679 537.573,345.484 538.86,345.286 540.145,345.082 541.432,344.876 
						542.719,344.667 544.003,344.457 545.291,344.238 546.574,344.021 547.863,343.798 549.15,343.569 550.434,343.341 
						551.722,343.105 553.009,342.87 554.292,342.629 555.583,342.384 556.868,342.135 558.151,341.883 559.441,341.625 
						560.727,341.363 562.011,341.103 563.3,340.833 564.586,340.56 565.87,340.286 567.155,340.004 568.444,339.723 
						569.729,339.435 571.015,339.142 572.304,338.847 573.588,338.546 574.873,338.244 576.163,337.931 577.449,337.621 
						578.733,337.302 580.022,336.981 581.309,336.655 582.592,336.324 583.878,335.991 585.167,335.652 586.452,335.309 
						587.737,334.959 589.027,334.605 590.311,334.252 591.596,333.891 592.886,333.525 594.17,333.155 595.456,332.783 
						596.745,332.401 598.028,332.021 599.314,331.636 600.604,331.244 601.888,330.852 603.174,330.459 604.459,330.056 
						605.747,329.649 607.032,329.242 608.317,328.833 609.605,328.419 610.892,328 612.178,327.582 613.465,327.158 
						614.751,326.735 616.037,326.308 617.324,325.88 618.61,325.45 619.896,325.021 621.18,324.586 622.469,324.153 
						623.755,323.718 625.039,323.283 626.329,322.848 627.614,322.413 628.897,321.976 630.188,321.541 631.474,321.105 
						632.757,320.675 634.047,320.246 635.333,319.817 636.616,319.391 637.906,318.968 639.192,318.543 640.478,318.125 
						641.761,317.715 643.051,317.305 644.336,316.899 645.62,316.498 646.91,316.103 648.196,315.709 649.479,315.326 
						650.769,314.947 652.055,314.579 653.339,314.208 654.628,313.851 655.915,313.5 657.198,313.16 658.483,312.824 
						659.773,312.5 661.058,312.182 662.342,311.874 663.633,311.577 664.917,311.287 666.201,311.008 667.491,310.744 
						668.775,310.485 670.062,310.242 671.351,310.005 672.632,309.782 673.922,309.569 675.21,309.372 676.493,309.187 
						677.78,309.011 679.064,308.849 680.351,308.7 681.639,308.563 682.922,308.443 684.211,308.332 685.499,308.236 
						686.782,308.151 688.07,308.082 689.357,308.029 690.641,307.986 691.93,307.958 693.218,307.945 694.501,307.945 
						695.784,307.958 697.077,307.986 698.359,308.029 699.644,308.082 700.937,308.151 702.219,308.236 703.502,308.332 
						704.794,308.443 706.078,308.563 707.362,308.7 708.653,308.849 709.938,309.011 711.221,309.187 712.509,309.372 
						713.797,309.569 715.081,309.782 716.367,310.005 717.656,310.242 718.939,310.485 720.228,310.744 721.516,311.008 
						722.799,311.287 724.087,311.577 725.374,311.874 726.658,312.182 727.946,312.5 729.234,312.824 730.518,313.16 
						731.806,313.5 733.09,313.851 734.377,314.208 735.665,314.579 736.947,314.947 738.234,315.326 739.523,315.709 
						740.807,316.103 742.099,316.498 743.382,316.899 744.666,317.305 745.957,317.715 747.241,318.125 748.524,318.543 
						749.813,318.968 751.1,319.391 752.385,319.817 753.671,320.246 754.96,320.675 756.243,321.105 757.531,321.541 
						758.818,321.976 760.103,322.413 761.39,322.848 762.678,323.283 763.962,323.718 765.25,324.153 766.538,324.586 
						767.821,325.021 769.109,325.45 770.393,325.88 771.68,326.308 772.968,326.735 774.251,327.158 775.539,327.582 776.826,328 
						778.11,328.419 779.397,328.833 780.686,329.242 781.97,329.649 783.257,330.056 784.545,330.459 785.829,330.852 
						787.112,331.244 788.404,331.636 789.688,332.021 790.973,332.401 792.264,332.783 793.548,333.155 794.831,333.525 
						796.123,333.891 797.406,334.252 798.69,334.605 799.982,334.959 801.267,335.309 802.55,335.652 803.842,335.991 
						805.125,336.324 806.407,336.655 807.695,336.981 808.983,337.302 810.267,337.621 811.555,337.931 812.843,338.244 
						814.126,338.546 815.414,338.847 816.701,339.142 817.985,339.435 819.273,339.723 820.562,340.004 821.846,340.286 
						823.133,340.56 824.416,340.833 825.704,341.103 826.992,341.363 828.275,341.625 829.563,341.883 830.852,342.135 
						832.135,342.384 833.423,342.629 834.71,342.87 835.994,343.105 837.282,343.341 838.57,343.569 839.854,343.798 
						841.141,344.021 842.428,344.238 843.711,344.457 844.996,344.667 846.287,344.876 847.571,345.082 848.854,345.286 
						850.146,345.484 851.431,345.679 852.715,345.871 854.007,346.056 855.29,346.244 856.573,346.422 857.865,346.598 
						859.149,346.773 860.434,346.944 861.72,347.109 863.009,347.272 864.292,347.428 865.58,347.582 866.868,347.735 
						868.155,347.881 869.438,348.024 870.727,348.163 872.016,348.3 873.297,348.427 874.586,348.556 875.872,348.677 
						877.156,348.797 878.443,348.909 879.732,349.02 881.015,349.125 882.299,349.225 883.592,349.319 884.875,349.41 
						886.158,349.496 887.45,349.581 888.734,349.659 890.019,349.728 891.311,349.8 892.594,349.862 893.877,349.919 
						895.169,349.973 896.453,350.018 897.737,350.066 899.023,350.103 900.313,350.136 901.596,350.166 902.884,350.187 
						904.171,350.207 905.455,350.218 906.742,350.227 908.029,350.227 909.314,350.227 910.602,350.218 911.889,350.207 
						913.173,350.187 914.461,350.166 915.748,350.136 917.032,350.103 918.32,350.066 919.604,350.018 920.892,349.973 
						922.179,349.919 923.463,349.862 924.75,349.8 926.039,349.728 927.322,349.659 928.61,349.581 929.898,349.496 
						931.182,349.41 932.468,349.319 933.758,349.225 935.039,349.125 936.325,349.02 937.617,348.909 938.9,348.797 
						940.184,348.677 941.475,348.556 942.758,348.427 944.042,348.3 945.334,348.163 946.617,348.024 947.9,347.881 
						949.192,347.735 950.477,347.582 951.761,347.428 953.052,347.272 954.335,347.109 955.619,346.944 956.907,346.773 
						958.195,346.598 959.479,346.422 960.767,346.244 962.054,346.056 963.338,345.871 964.627,345.679 965.914,345.484 
						967.198,345.286 968.486,345.082 969.773,344.876 971.056,344.667 972.345,344.457 973.629,344.238 974.916,344.021 
						976.204,343.798 977.488,343.569 978.775,343.341 980.063,343.105 981.346,342.87 982.634,342.629 983.922,342.384 
						985.205,342.135 986.493,341.883 987.78,341.625 989.064,341.363 990.355,341.103 991.64,340.833 992.924,340.56 
						994.213,340.286 995.499,340.004 996.782,339.723 998.071,339.435 999.359,339.142 1000.641,338.847 1001.931,338.546 
						1003.219,338.244 1004.502,337.931 1005.79,337.621 1007.077,337.302 1008.361,336.981 1009.649,336.655 1010.932,336.324 
						1012.221,335.991 1013.507,335.652 1014.791,335.309 1016.078,334.959 1017.366,334.605 1018.649,334.252 1019.938,333.891 
						1021.225,333.525 1022.509,333.155 1023.797,332.783 1025.084,332.401 1026.368,332.021 1027.656,331.636 1028.942,331.244 
						1030.228,330.852 1031.511,330.459 1032.803,330.056 1034.086,329.649 1035.37,329.242 1036.663,328.833 1037.947,328.419 
						1039.23,328 1040.522,327.582 1041.806,327.158 1043.09,326.735 1044.382,326.308 1045.664,325.88 1046.948,325.45 
						1048.235,325.021 1049.523,324.586 1050.808,324.153 1052.095,323.718 1053.383,323.283 1054.666,322.848 1055.954,322.413 
						1057.242,321.976 1058.525,321.541 1059.813,321.105 1061.101,320.675 1062.385,320.246 1063.672,319.817 1064.96,319.391 
						1066.243,318.968 1067.531,318.543 1068.816,318.125 1070.103,317.715 1071.392,317.305 1072.674,316.899 1073.963,316.498 
						1075.251,316.103 1076.534,315.709 1077.821,315.326 1079.109,314.947 1080.393,314.579 1081.68,314.208 1082.968,313.851 
						1084.252,313.5 1085.535,313.16 1086.827,312.824 1088.11,312.5 1089.395,312.182 1090.687,311.874 1091.97,311.577 
						1093.254,311.287 1094.545,311.008 1095.829,310.744 1097.113,310.485 1098.404,310.242 1099.688,310.005 1100.972,309.782 
						1102.264,309.569 1103.549,309.372 1104.831,309.187 1106.12,309.011 1107.406,308.849 1108.691,308.7 1109.979,308.563 
						1111.267,308.443 1112.555,308.332 1113.838,308.236 1115.125,308.151 1116.412,308.082 1117.696,308.029 1118.984,307.986 
						1120.271,307.958 1121.556,307.945 1122.84,307.945 1124.131,307.958 1125.415,307.986 1126.698,308.029 1127.99,308.082 
						1129.274,308.151 1130.56,308.236 1131.851,308.332 1133.135,308.443 1134.416,308.563 1135.71,308.7 1136.992,308.849 
						1138.276,309.011 1139.567,309.187 1140.853,309.372 1142.137,309.569 1143.422,309.782 1144.712,310.005 1145.996,310.242 
						1147.283,310.485 1148.57,310.744 1149.854,311.008 1151.141,311.287 1152.429,311.577 1153.713,311.874 1155,312.182 
						1156.288,312.5 1157.572,312.824 1158.858,313.16 1160.144,313.5 1161.432,313.851 1162.719,314.208 1164.002,314.579 
						1165.289,314.947 1166.577,315.326 1167.863,315.709 1169.149,316.103 1170.438,316.498 1171.721,316.899 1173.008,317.305 
						1174.296,317.715 1175.58,318.125 1176.867,318.543 1178.156,318.968 1179.438,319.391 1180.725,319.817 1182.014,320.246 
						1183.299,320.675 1184.582,321.105 1185.875,321.541 1187.157,321.976 1188.441,322.413 1189.732,322.848 1191.017,323.283 
						1192.3,323.718 1193.592,324.153 1194.875,324.586 1196.16,325.021 1197.446,325.45 1198.735,325.88 1200.019,326.308 
						1201.306,326.735 1202.594,327.158 1203.878,327.582 1205.165,328 1206.453,328.419 1207.736,328.833 1209.024,329.242 
						1210.313,329.649 1211.598,330.056 1212.884,330.459 1214.173,330.852 1215.456,331.244 1216.742,331.636 1218.025,332.021 
						1219.314,332.401 1220.603,332.783 1221.886,333.155 1223.174,333.525 1224.461,333.891 1225.745,334.252 1227.033,334.605 
						1228.32,334.959 1229.604,335.309 1230.892,335.652 1232.179,335.991 1233.463,336.324 1234.747,336.655 1236.039,336.981 
						1237.322,337.302 1238.606,337.621 1239.897,337.931 1241.182,338.244 1242.465,338.546 1243.757,338.847 1245.04,339.142 
						1246.328,339.435 1247.617,339.723 1248.901,340.004 1250.188,340.286 1251.475,340.56 1252.762,340.833 1254.045,341.103 
						1255.331,341.363 1256.618,341.625 1257.905,341.883 1259.188,342.135 1260.478,342.384 1261.765,342.629 1263.049,342.87 
						1264.337,343.105 1265.624,343.341 1266.907,343.569 1268.198,343.798 1269.483,344.021 1270.768,344.238 1272.051,344.457 
						1273.342,344.667 1274.625,344.876 1275.909,345.082 1277.201,345.286 1278.485,345.484 1279.769,345.679 1281.061,345.871 
						1282.344,346.056 1283.628,346.244 1284.921,346.422 1286.205,346.598 1287.486,346.773 1288.777,346.944 1290.061,347.109 
						1291.348,347.272 1292.635,347.428 1293.922,347.582 1295.205,347.735 1296.491,347.881 1297.781,348.024 1299.065,348.163 
						1300.354,348.3 1301.641,348.427 1302.924,348.556 1304.211,348.677 1305.499,348.797 1306.785,348.909 1308.07,349.02 
						1309.354,349.125 1310.642,349.225 1311.929,349.319 1313.213,349.41 1314.502,349.496 1315.789,349.581 1317.072,349.659 
						1318.36,349.728 1319.65,349.8 1320.932,349.862 1322.221,349.919 1323.508,349.973 1324.79,350.018 1326.077,350.066 
						1327.366,350.103 1328.648,350.136 1329.936,350.166 1331.226,350.187 1332.509,350.207 1333.793,350.218 1335.085,350.227 
						1336.369,350.227 1336.369,460.657 51.348,460.657 51.348,350.227 					"/>
					<g id="g3033_3_">
					</g>
				</g>
			</g>
		</g>
	</g>
	<rect y="335" fill="#0479AE" width="1280" height="465"/>
</g>
</svg>
